%YAML 1.1
%TAG !u! tag:unity3d.com,2011:
--- !u!114 &11400000
MonoBehaviour:
  m_ObjectHideFlags: 0
  m_CorrespondingSourceObject: {fileID: 0}
  m_PrefabInstance: {fileID: 0}
  m_PrefabAsset: {fileID: 0}
  m_GameObject: {fileID: 0}
  m_Enabled: 1
  m_EditorHideFlags: 0
  m_Script: {fileID: 11500000, guid: 5667af4d71b6ae142a600bb12b008d4e, type: 3}
  m_Name: Paper
  m_EditorClassIdentifier: 
  handStructName: Paper
  evaluatedJoints: -1
  jointsTolerance: 0.0385
  enableOrientationCheck: 0
  orientationTolerance: 0.8
  wrist:
    transformName: Wrist
    position: {x: 0.3, y: 1.5, z: 0.5}
    localPosition: {x: 0, y: 0, z: 0}
    rotation: {x: 0.30171657, y: 0.36107415, z: 0.66860306, w: 0.57581484}
    localRotation: {x: -0.2908136, y: 0.07607287, z: 0.016715286, w: 0.9536043}
    transformDetails:
      forward: {x: 0.819281, y: 0.1353648, z: 0.5571852}
      right: {x: -0.1548092, y: 0.98786724, z: -0.012366444}
      up: {x: -0.552099, y: -0.076125905, z: 0.8302963}
      worldToLocalMatrix:
        e00: -0.1548089
        e01: 0.98786706
        e02: -0.012366515
        e03: -1.4291747
        e10: -0.55209905
        e11: -0.07612559
        e12: 0.8302961
        e13: -0.13532995
        e20: 0.81928074
        e21: 0.13536476
        e22: 0.55718535
        e23: -0.727424
        e30: 0
        e31: 0
        e32: 0
        e33: 1
      localToWorldMatrix:
        e00: -0.1548089
        e01: -0.55209905
        e02: 0.81928074
        e03: 0.3
        e10: 0.98786706
        e11: -0.07612559
        e12: 0.13536476
        e13: 1.5
        e20: -0.012366515
        e21: 0.8302961
        e22: 0.55718535
        e23: 0.5
        e30: 0
        e31: 0
        e32: 0
        e33: 1
  fingers:
  - Name: Thumb
    joints:
    - transformName: b_r_thumb0
      position: {x: 0.3118717, y: 1.5221262, z: 0.496007}
      localPosition: {x: 0.020069301, y: -0.011554099, z: 0.0104965195}
      rotation: {x: 0.75762707, y: 0.15726024, z: 0.38838696, w: 0.50042605}
      localRotation: {x: 0.25017422, y: -0.479507, z: 0.11516415, w: 0.8332006}
      transformDetails:
        forward: {x: 0.7458992, y: -0.636117, z: -0.19745907}
        right: {x: 0.64884955, y: 0.6270071, z: 0.43111074}
        up: {x: -0.1504287, y: -0.44968638, z: 0.8804283}
        worldToLocalMatrix:
          e00: 0.6488496
          e01: 0.627007
          e02: 0.43111074
          e03: -1.3705755
          e10: -0.15042874
          e11: -0.44968617
          e12: 0.8804281
          e13: 0.29469508
          e20: 0.74589914
          e21: -0.63611686
          e22: -0.19745877
          e23: 0.83356625
          e30: 0
          e31: 0
          e32: 0
          e33: 1
        localToWorldMatrix:
          e00: 0.6488496
          e01: -0.15042874
          e02: 0.74589914
          e03: 0.3118717
          e10: 0.627007
          e11: -0.44968617
          e12: -0.63611686
          e13: 1.5221262
          e20: 0.43111074
          e21: 0.8804281
          e22: -0.19745877
          e23: 0.496007
          e30: 0
          e31: 0
          e32: 0
          e33: 1
    - transformName: b_r_thumb1
      position: {x: 0.32799727, y: 1.537709, z: 0.5067212}
      localPosition: {x: 0.024852559, y: 4.440892e-18, z: -1.1657341e-17}
      rotation: {x: 0.7906656, y: 0.37957639, z: 0.38363588, w: 0.28912532}
      localRotation: {x: 0.2637123, y: 0.12805064, z: -0.08354823, w: 0.95240676}
      transformDetails:
        forward: {x: 0.8261457, y: -0.16596466, z: -0.5384607}
        right: {x: 0.41749057, y: 0.8220737, z: 0.38716513}
        up: {x: 0.3783983, y: -0.54465723, z: 0.74844116}
        worldToLocalMatrix:
          e00: 0.41749072
          e01: 0.8220735
          e02: 0.387165
          e03: -1.5972303
          e10: 0.37839815
          e11: -0.5446567
          e12: 0.748441
          e13: 0.33415896
          e20: 0.8261456
          e21: -0.16596454
          e22: -0.53846025
          e23: 0.25708088
          e30: 0
          e31: 0
          e32: 0
          e33: 1
        localToWorldMatrix:
          e00: 0.41749072
          e01: 0.37839815
          e02: 0.8261456
          e03: 0.32799727
          e10: 0.8220735
          e11: -0.5446567
          e12: -0.16596454
          e13: 1.537709
          e20: 0.387165
          e21: 0.748441
          e22: -0.53846025
          e23: 0.5067212
          e30: 0
          e31: 0
          e32: 0
          e33: 1
    - transformName: b_r_thumb2
      position: {x: 0.34157112, y: 1.5644369, z: 0.51930904}
      localPosition: {x: 0.03251291, y: -4.440892e-18, z: 3.2196467e-17}
      rotation: {x: 0.6885161, y: 0.45495403, z: 0.42293906, w: 0.37427992}
      localRotation: {x: -0.08286376, y: 0.059734844, z: -0.11967678, w: 0.9875439}
      transformDetails:
        forward: {x: 0.922961, y: -0.1305598, z: -0.36207512}
        right: {x: 0.22827879, y: 0.9430815, z: 0.24184036}
        up: {x: 0.3098911, y: -0.30586368, z: 0.9002311}
        worldToLocalMatrix:
          e00: 0.22827895
          e01: 0.94308114
          e02: 0.24184038
          e03: -1.6789544
          e10: 0.30989102
          e11: -0.30586314
          e12: 0.9002307
          e13: -0.09484418
          e20: 0.92296076
          e21: -0.13055967
          e22: -0.3620745
          e23: 0.07702418
          e30: 0
          e31: 0
          e32: 0
          e33: 1
        localToWorldMatrix:
          e00: 0.22827895
          e01: 0.30989102
          e02: 0.92296076
          e03: 0.34157112
          e10: 0.94308114
          e11: -0.30586314
          e12: -0.13055967
          e13: 1.5644369
          e20: 0.24184038
          e21: 0.9002307
          e22: -0.3620745
          e23: 0.51930904
          e30: 0
          e31: 0
          e32: 0
          e33: 1
    - transformName: b_r_thumb3
      position: {x: 0.34928536, y: 1.5963066, z: 0.5274816}
      localPosition: {x: 0.03379309, y: 1.3322676e-17, z: -1.6653344e-17}
      rotation: {x: 0.82002664, y: 0.3240669, z: 0.39233223, w: 0.26194078}
      localRotation: {x: 0.08513646, y: -0.0745735, z: 0.18600613, w: 0.9760084}
      transformDetails:
        forward: {x: 0.8132184, y: -0.17531306, z: -0.5549261}
        right: {x: 0.48211214, y: 0.73702264, z: 0.47367305}
        up: {x: 0.32595137, y: -0.65273654, z: 0.6838806}
        worldToLocalMatrix:
          e00: 0.4821124
          e01: 0.7370222
          e02: 0.47367296
          e03: -1.594762
          e10: 0.3259513
          e11: -0.65273565
          e12: 0.68388027
          e13: 0.5673819
          e20: 0.81321806
          e21: -0.17531285
          e22: -0.55492514
          e23: 0.2885207
          e30: 0
          e31: 0
          e32: 0
          e33: 1
        localToWorldMatrix:
          e00: 0.4821124
          e01: 0.3259513
          e02: 0.81321806
          e03: 0.34928536
          e10: 0.7370222
          e11: -0.65273565
          e12: -0.17531285
          e13: 1.5963066
          e20: 0.47367296
          e21: 0.68388027
          e22: -0.55492514
          e23: 0.5274816
          e30: 0
          e31: 0
          e32: 0
          e33: 1
    - transformName: b_r_thumb_null
      position: {x: 0.35645118, y: 1.6072612, z: 0.534522}
      localPosition: {x: 0.014863368, y: 0, z: 8.881784e-18}
      rotation: {x: 0.82002664, y: 0.3240669, z: 0.39233223, w: 0.26194078}
      localRotation: {x: -1.3877788e-17, y: -1.8388069e-16, z: -2.4980018e-16, w: 1}
      transformDetails:
        forward: {x: 0.8132184, y: -0.17531306, z: -0.5549261}
        right: {x: 0.48211214, y: 0.73702264, z: 0.47367305}
        up: {x: 0.32595137, y: -0.65273654, z: 0.6838806}
        worldToLocalMatrix:
          e00: 0.4821124
          e01: 0.7370222
          e02: 0.47367296
          e03: -1.6096253
          e10: 0.3259513
          e11: -0.65273565
          e12: 0.68388027
          e13: 0.5673819
          e20: 0.81321806
          e21: -0.17531285
          e22: -0.55492514
          e23: 0.2885207
          e30: 0
          e31: 0
          e32: 0
          e33: 1
        localToWorldMatrix:
          e00: 0.4821124
          e01: 0.3259513
          e02: 0.81321806
          e03: 0.35645118
          e10: 0.7370222
          e11: -0.65273565
          e12: -0.17531285
          e13: 1.6072612
          e20: 0.47367296
          e21: 0.68388027
          e22: -0.55492514
          e23: 0.534522
          e30: 0
          e31: 0
          e32: 0
          e33: 1
  - Name: Index
    joints:
    - transformName: b_r_index1
      position: {x: 0.30847296, y: 1.5985764, z: 0.50586015}
      localPosition: {x: 0.09599624, y: -0.0073164543, z: 0.02355068}
      rotation: {x: 0.34713143, y: 0.35113847, z: 0.6764393, w: 0.546472}
      localRotation: {x: 0.025531301, y: -0.023126379, z: 0.043526836, w: 0.9984582}
      transformDetails:
        forward: {x: 0.85340136, y: 0.09565249, z: 0.5124031}
        right: {x: -0.16173667, y: 0.98309267, z: 0.08585197}
        up: {x: -0.49552786, y: -0.15614067, z: 0.85444295}
        worldToLocalMatrix:
          e00: -0.16173637
          e01: 0.9830925
          e02: 0.08585198
          e03: -1.5650861
          e10: -0.49552783
          e11: -0.15614042
          e12: 0.8544427
          e13: -0.029769195
          e20: 0.85340124
          e21: 0.09565242
          e22: 0.51240325
          e23: -0.67536336
          e30: 0
          e31: 0
          e32: 0
          e33: 1
        localToWorldMatrix:
          e00: -0.16173637
          e01: -0.49552783
          e02: 0.85340124
          e03: 0.30847296
          e10: 0.9830925
          e11: -0.15614042
          e12: 0.09565242
          e13: 1.5985764
          e20: 0.08585198
          e21: 0.8544427
          e22: 0.51240325
          e23: 0.50586015
          e30: 0
          e31: 0
          e32: 0
          e33: 1
    - transformName: b_r_index2
      position: {x: 0.30233875, y: 1.6358625, z: 0.5091163}
      localPosition: {x: 0.0379273, y: 3.330669e-18, z: 1.3322676e-17}
      rotation: {x: 0.30121765, y: 0.36177164, z: 0.64323795, w: 0.60384977}
      localRotation: {x: -0.026157254, y: 0.00519588, z: -0.07676936, w: 0.9966922}
      transformDetails:
        forward: {x: 0.8244207, y: 0.10163009, z: 0.55677843}
        right: {x: -0.08926755, y: 0.9947822, z: -0.049402207}
        up: {x: -0.55889416, y: -0.008974254, z: 0.8291909}
        worldToLocalMatrix:
          e00: -0.08926712
          e01: 0.9947818
          e02: -0.049402226
          e03: -1.5751858
          e10: -0.5588941
          e11: -0.008973852
          e12: 0.8291906
          e13: -0.2384991
          e20: 0.8244204
          e21: 0.10163008
          e22: 0.55677867
          e23: -0.6989721
          e30: 0
          e31: 0
          e32: 0
          e33: 1
        localToWorldMatrix:
          e00: -0.08926712
          e01: -0.5588941
          e02: 0.8244204
          e03: 0.30233875
          e10: 0.9947818
          e11: -0.008973852
          e12: 0.10163008
          e13: 1.6358625
          e20: -0.049402226
          e21: 0.8291906
          e22: 0.55677867
          e23: 0.5091163
          e30: 0
          e31: 0
          e32: 0
          e33: 1
    - transformName: b_r_index3
      position: {x: 0.30016923, y: 1.6600393, z: 0.5079156}
      localPosition: {x: 0.024303643, y: -5.2735593e-18, z: -8.881784e-18}
      rotation: {x: 0.29871482, y: 0.34546262, z: 0.6979408, w: 0.55163735}
      localRotation: {x: -0.016064566, y: 0.027128153, z: 0.07062441, w: 0.9970046}
      transformDetails:
        forward: {x: 0.7981107, y: 0.15266043, z: 0.5828501}
        right: {x: -0.21293165, y: 0.9764101, z: 0.03583035}
        up: {x: -0.5636309, y: -0.1527039, z: 0.81178945}
        worldToLocalMatrix:
          e00: -0.21293148
          e01: 0.97641
          e02: 0.035830308
          e03: -1.5751623
          e10: -0.56363094
          e11: -0.15270373
          e12: 0.8117893
          e13: 0.010358406
          e20: 0.79811054
          e21: 0.15266041
          e22: 0.5828502
          e23: -0.78902924
          e30: 0
          e31: 0
          e32: 0
          e33: 1
        localToWorldMatrix:
          e00: -0.21293148
          e01: -0.56363094
          e02: 0.79811054
          e03: 0.30016923
          e10: 0.97641
          e11: -0.15270373
          e12: 0.15266041
          e13: 1.6600393
          e20: 0.035830308
          e21: 0.8117893
          e22: 0.5828502
          e23: 0.5079156
          e30: 0
          e31: 0
          e32: 0
          e33: 1
    - transformName: b_r_index_null
      position: {x: 0.29770285, y: 1.671349, z: 0.50833064}
      localPosition: {x: 0.011583036, y: 6.661338e-18, z: 0}
      rotation: {x: 0.29871482, y: 0.34546262, z: 0.6979408, w: 0.55163735}
      localRotation: {x: 5.2041704e-18, y: 1.3877788e-17, z: -1.7997756e-17, w: 1}
      transformDetails:
        forward: {x: 0.7981107, y: 0.15266043, z: 0.5828501}
        right: {x: -0.21293165, y: 0.9764101, z: 0.03583035}
        up: {x: -0.5636309, y: -0.1527039, z: 0.81178945}
        worldToLocalMatrix:
          e00: -0.21293148
          e01: 0.97641
          e02: 0.035830308
          e03: -1.5867453
          e10: -0.56363094
          e11: -0.15270373
          e12: 0.8117893
          e13: 0.010358406
          e20: 0.79811054
          e21: 0.15266041
          e22: 0.5828502
          e23: -0.78902924
          e30: 0
          e31: 0
          e32: 0
          e33: 1
        localToWorldMatrix:
          e00: -0.21293148
          e01: -0.56363094
          e02: 0.79811054
          e03: 0.29770285
          e10: 0.97641
          e11: -0.15270373
          e12: 0.15266041
          e13: 1.671349
          e20: 0.035830308
          e21: 0.8117893
          e22: 0.5828502
          e23: 0.50833064
          e30: 0
          e31: 0
          e32: 0
          e33: 1
  - Name: Middle
    joints:
    - transformName: b_r_middle1
      position: {x: 0.28801113, y: 1.5949134, z: 0.49766725}
      localPosition: {x: 0.095646605, y: -0.0025431544, z: 0.0017259055}
      rotation: {x: 0.2788906, y: 0.3710301, z: 0.6734797, w: 0.57531035}
      localRotation: {x: -0.008095592, y: 0.022647822, z: -0.008100357, w: 0.9996779}
      transformDetails:
        forward: {x: 0.8025692, y: 0.17886513, z: 0.5691134}
        right: {x: -0.1824764, y: 0.9818733, z: -0.05126059}
        up: {x: -0.567966, y: -0.062709674, z: 0.82065976}
        worldToLocalMatrix:
          e00: -0.18247624
          e01: 0.9818731
          e02: -0.05126059
          e03: -1.4879366
          e10: -0.5679661
          e11: -0.062709555
          e12: 0.8206595
          e13: -0.14481851
          e20: 0.80256903
          e21: 0.17886513
          e22: 0.5691136
          e23: -0.79965246
          e30: 0
          e31: 0
          e32: 0
          e33: 1
        localToWorldMatrix:
          e00: -0.18247624
          e01: -0.5679661
          e02: 0.80256903
          e03: 0.28801113
          e10: 0.9818731
          e11: -0.062709555
          e12: 0.17886513
          e13: 1.5949134
          e20: -0.05126059
          e21: 0.8206595
          e22: 0.5691136
          e23: 0.49766725
          e30: 0
          e31: 0
          e32: 0
          e33: 1
    - transformName: b_r_middle2
      position: {x: 0.28017798, y: 1.6370622, z: 0.4954668}
      localPosition: {x: 0.04292699, y: -4.440892e-18, z: 4.440892e-18}
      rotation: {x: 0.27011222, y: 0.3654685, z: 0.67982507, w: 0.57559544}
      localRotation: {x: -0.011229691, y: 0.004376339, z: 0.0017525998, w: 0.99992585}
      transformDetails:
        forward: {x: 0.7879821, y: 0.18595856, z: 0.58694434}
        right: {x: -0.19145873, y: 0.9800434, z: -0.053465903}
        up: {x: -0.58517337, y: -0.07024549, z: 0.80786}
        worldToLocalMatrix:
          e00: -0.19145869
          e01: 0.98004335
          e02: -0.053465914
          e03: -1.5242589
          e10: -0.5851734
          e11: -0.070245415
          e12: 0.80785996
          e13: -0.12131895
          e20: 0.78798205
          e21: 0.18595864
          e22: 0.5869444
          e23: -0.8160125
          e30: 0
          e31: 0
          e32: 0
          e33: 1
        localToWorldMatrix:
          e00: -0.19145869
          e01: -0.5851734
          e02: 0.78798205
          e03: 0.28017798
          e10: 0.98004335
          e11: -0.070245415
          e12: 0.18595864
          e13: 1.6370622
          e20: -0.053465914
          e21: 0.80785996
          e22: 0.5869444
          e23: 0.4954668
          e30: 0
          e31: 0
          e32: 0
          e33: 1
    - transformName: b_r_middle3
      position: {x: 0.2749034, y: 1.664062, z: 0.49399385}
      localPosition: {x: 0.027549583, y: 1.110223e-18, z: 8.881784e-18}
      rotation: {x: 0.24875209, y: 0.33378267, z: 0.7014275, w: 0.5785422}
      localRotation: {x: -0.0425266, y: 0.0010410477, z: 0.011183254, w: 0.9990322}
      transformDetails:
        forward: {x: 0.7351778, y: 0.18042156, z: 0.6534231}
        right: {x: -0.20682284, y: 0.9776691, z: -0.03725159}
        up: {x: -0.6455525, y: -0.1077563, z: 0.75607586}
        worldToLocalMatrix:
          e00: -0.20682275
          e01: 0.97766894
          e02: -0.03725161
          e03: -1.5516434
          e10: -0.6455526
          e11: -0.10775623
          e12: 0.7560758
          e13: -0.016719151
          e20: 0.73517776
          e21: 0.18042155
          e22: 0.6534232
          e23: -0.82512254
          e30: 0
          e31: 0
          e32: 0
          e33: 1
        localToWorldMatrix:
          e00: -0.20682275
          e01: -0.6455526
          e02: 0.73517776
          e03: 0.2749034
          e10: 0.97766894
          e11: -0.10775623
          e12: 0.18042155
          e13: 1.664062
          e20: -0.03725161
          e21: 0.7560758
          e22: 0.6534232
          e23: 0.49399385
          e30: 0
          e31: 0
          e32: 0
          e33: 1
    - transformName: b_r_middle_null
      position: {x: 0.27237943, y: 1.675993, z: 0.49353924}
      localPosition: {x: 0.0122034745, y: 6.661338e-18, z: 0}
      rotation: {x: 0.24875209, y: 0.33378267, z: 0.7014275, w: 0.5785422}
      localRotation: {x: 2.0816682e-17, y: -1.3877788e-17, z: -1.7347235e-17, w: 1}
      transformDetails:
        forward: {x: 0.7351778, y: 0.18042156, z: 0.6534231}
        right: {x: -0.20682284, y: 0.9776691, z: -0.03725159}
        up: {x: -0.6455525, y: -0.1077563, z: 0.75607586}
        worldToLocalMatrix:
          e00: -0.20682275
          e01: 0.97766894
          e02: -0.03725161
          e03: -1.5638468
          e10: -0.6455526
          e11: -0.10775623
          e12: 0.7560758
          e13: -0.016719151
          e20: 0.73517776
          e21: 0.18042155
          e22: 0.6534232
          e23: -0.82512254
          e30: 0
          e31: 0
          e32: 0
          e33: 1
        localToWorldMatrix:
          e00: -0.20682275
          e01: -0.6455526
          e02: 0.73517776
          e03: 0.27237943
          e10: 0.97766894
          e11: -0.10775623
          e12: 0.18042155
          e13: 1.675993
          e20: -0.03725161
          e21: 0.7560758
          e22: 0.6534232
          e23: 0.49353924
          e30: 0
          e31: 0
          e32: 0
          e33: 1
  - Name: Ring
    joints:
    - transformName: b_r_ring1
      position: {x: 0.27556533, y: 1.5857506, z: 0.48375052}
      localPosition: {x: 0.08869379, y: -0.006529307, z: -0.017465241}
      rotation: {x: 0.22655553, y: 0.3632022, z: 0.69245183, w: 0.5807472}
      localRotation: {x: -0.051955327, y: 0.056892935, z: -0.017345995, w: 0.9968766}
      transformDetails:
        forward: {x: 0.7356149, y: 0.2398571, z: 0.63351345}
        right: {x: -0.22281078, y: 0.96884984, z: -0.10809976}
        up: {x: -0.639708, y: -0.061633885, z: 0.7661431}
        worldToLocalMatrix:
          e00: -0.22281079
          e01: 0.9688498
          e02: -0.108099714
          e03: -1.4226619
          e10: -0.639708
          e11: -0.061633907
          e12: 0.76614296
          e13: -0.09660474
          e20: 0.73561484
          e21: 0.23985714
          e22: 0.63351357
          e23: -0.889526
          e30: 0
          e31: 0
          e32: 0
          e33: 1
        localToWorldMatrix:
          e00: -0.22281079
          e01: -0.639708
          e02: 0.73561484
          e03: 0.27556533
          e10: 0.9688498
          e11: -0.061633907
          e12: 0.23985714
          e13: 1.5857506
          e20: -0.108099714
          e21: 0.76614296
          e22: 0.63351357
          e23: 0.48375052
          e30: 0
          e31: 0
          e32: 0
          e33: 1
    - transformName: b_r_ring2
      position: {x: 0.26687658, y: 1.6235319, z: 0.47953507}
      localPosition: {x: 0.0389961, y: -8.881784e-18, z: 8.881784e-18}
      rotation: {x: 0.19969854, y: 0.34427246, z: 0.69633776, w: 0.59725296}
      localRotation: {x: -0.033855963, y: 0.0024892252, z: -0.014638609, w: 0.99931645}
      transformDetails:
        forward: {x: 0.6893508, y: 0.24091874, z: 0.6831939}
        right: {x: -0.20681964, y: 0.969281, z: -0.13312024}
        up: {x: -0.6942782, y: -0.049531586, z: 0.7180009}
        worldToLocalMatrix:
          e00: -0.2068192
          e01: 0.9692806
          e02: -0.1331202
          e03: -1.4546269
          e10: -0.69427806
          e11: -0.049531233
          e12: 0.71800053
          e13: -0.078604355
          e20: 0.6893503
          e21: 0.24091871
          e22: 0.68319416
          e23: -0.90272623
          e30: 0
          e31: 0
          e32: 0
          e33: 1
        localToWorldMatrix:
          e00: -0.2068192
          e01: -0.69427806
          e02: 0.6893503
          e03: 0.26687658
          e10: 0.9692806
          e11: -0.049531233
          e12: 0.24091871
          e13: 1.6235319
          e20: -0.1331202
          e21: 0.71800053
          e22: 0.68319416
          e23: 0.47953507
          e30: 0
          e31: 0
          e32: 0
          e33: 1
    - transformName: b_r_ring3
      position: {x: 0.26138067, y: 1.649289, z: 0.4759976}
      localPosition: {x: 0.026573397, y: 4.440892e-18, z: -4.440892e-18}
      rotation: {x: 0.20142454, y: 0.33003277, z: 0.66652346, w: 0.63738}
      localRotation: {x: -0.0066337474, y: -0.029475123, z: -0.04231081, w: 0.99864763}
      transformDetails:
        forward: {x: 0.6892209, y: 0.1831812, z: 0.7010131}
        right: {x: -0.10635026, y: 0.9826109, z: -0.15220419}
        up: {x: -0.7167041, y: 0.0303493, z: 0.69671714}
        worldToLocalMatrix:
          e00: -0.10634999
          e01: 0.98261064
          e02: -0.15220417
          e03: -1.5203623
          e10: -0.7167039
          e11: 0.030349515
          e12: 0.6967169
          e13: -0.19435816
          e20: 0.6892208
          e21: 0.18318115
          e22: 0.70101315
          e23: -0.8159482
          e30: 0
          e31: 0
          e32: 0
          e33: 1
        localToWorldMatrix:
          e00: -0.10634999
          e01: -0.7167039
          e02: 0.6892208
          e03: 0.26138067
          e10: 0.98261064
          e11: 0.030349515
          e12: 0.18318115
          e13: 1.649289
          e20: -0.15220417
          e21: 0.6967169
          e22: 0.70101315
          e23: 0.4759976
          e30: 0
          e31: 0
          e32: 0
          e33: 1
    - transformName: b_r_ring_null
      position: {x: 0.2601109, y: 1.6610208, z: 0.47418037}
      localPosition: {x: 0.01193941, y: -1.110223e-18, z: -6.661338e-18}
      rotation: {x: 0.20142454, y: 0.33003277, z: 0.66652346, w: 0.63738}
      localRotation: {x: 4.1633363e-17, y: -5.551115e-17, z: 3.469447e-17, w: 1}
      transformDetails:
        forward: {x: 0.6892209, y: 0.1831812, z: 0.7010131}
        right: {x: -0.10635026, y: 0.9826109, z: -0.15220419}
        up: {x: -0.7167041, y: 0.0303493, z: 0.69671714}
        worldToLocalMatrix:
          e00: -0.10634999
          e01: 0.98261064
          e02: -0.15220417
          e03: -1.5323017
          e10: -0.7167039
          e11: 0.030349515
          e12: 0.6967169
          e13: -0.19435816
          e20: 0.6892208
          e21: 0.18318115
          e22: 0.70101315
          e23: -0.8159482
          e30: 0
          e31: 0
          e32: 0
          e33: 1
        localToWorldMatrix:
          e00: -0.10634999
          e01: -0.7167039
          e02: 0.6892208
          e03: 0.2601109
          e10: 0.98261064
          e11: 0.030349515
          e12: 0.18318115
          e13: 1.6610208
          e20: -0.15220417
          e21: 0.6967169
          e22: 0.70101315
          e23: 0.47418037
          e30: 0
          e31: 0
          e32: 0
          e33: 1
  - Name: Pinky
    joints:
    - transformName: b_r_pinky0
      position: {x: 0.28108352, y: 1.5312641, z: 0.4789429}
      localPosition: {x: 0.034073558, y: -0.009419835, z: -0.022998573}
      rotation: {x: 0.07241425, y: 0.2974464, z: 0.7537905, w: 0.5814481}
      localRotation: {x: -0.20703599, y: 0.14034285, z: -0.0183118, w: 0.96804166}
      transformDetails:
        forward: {x: 0.45506963, y: 0.3642143, z: 0.8125636}
        right: {x: -0.31334895, y: 0.9196588, z: -0.23672894}
        up: {x: -0.83350134, y: -0.14688787, z: 0.5326348}
        worldToLocalMatrix:
          e00: -0.31334865
          e01: 0.91965866
          e02: -0.23672897
          e03: -1.2067834
          e10: -0.8335014
          e11: -0.14688763
          e12: 0.5326346
          e13: 0.20410568
          e20: 0.45506945
          e21: 0.3642142
          e22: 0.8125637
          e23: -1.0747923
          e30: 0
          e31: 0
          e32: 0
          e33: 1
        localToWorldMatrix:
          e00: -0.31334865
          e01: -0.8335014
          e02: 0.45506945
          e03: 0.28108352
          e10: 0.91965866
          e11: -0.14688763
          e12: 0.3642142
          e13: 1.5312641
          e20: -0.23672897
          e21: 0.5326346
          e22: 0.8125637
          e23: 0.4789429
          e30: 0
          e31: 0
          e32: 0
          e33: 1
    - transformName: b_r_pinky1
      position: {x: 0.2667808, y: 1.5732479, z: 0.46813735}
      localPosition: {x: 0.04565054, y: -0.0000009982332, z: 0.0000021940255}
      rotation: {x: 0.17732129, y: 0.349998, z: 0.7902028, w: 0.4707847}
      localRotation: {x: 0.09779381, y: -0.012968727, z: 0.13198765, w: 0.98633033}
      transformDetails:
        forward: {x: 0.609787, y: 0.3861785, z: 0.6921171}
        right: {x: -0.49383813, y: 0.86815494, z: -0.049307853}
        up: {x: -0.6199066, y: -0.3117266, z: 0.7200991}
        worldToLocalMatrix:
          e00: -0.49383795
          e01: 0.8681549
          e02: -0.049307853
          e03: -1.2109934
          e10: -0.6199066
          e11: -0.31172645
          e12: 0.72009903
          e13: 0.31869695
          e20: 0.60978687
          e21: 0.38617837
          e22: 0.69211715
          e23: -1.0942397
          e30: 0
          e31: 0
          e32: 0
          e33: 1
        localToWorldMatrix:
          e00: -0.49383795
          e01: -0.6199066
          e02: 0.60978687
          e03: 0.2667808
          e10: 0.8681549
          e11: -0.31172645
          e12: 0.38617837
          e13: 1.5732479
          e20: -0.049307853
          e21: 0.72009903
          e22: 0.69211715
          e23: 0.46813735
          e30: 0
          e31: 0
          e32: 0
          e33: 1
    - transformName: b_r_pinky2
      position: {x: 0.25160992, y: 1.599918, z: 0.4666226}
      localPosition: {x: 0.030720409, y: 1.110223e-18, z: -3.7747583e-17}
      rotation: {x: 0.024464577, y: 0.350105, z: 0.66087437, w: 0.6633804}
      localRotation: {x: -0.060764663, y: 0.030497396, z: -0.266594, w: 0.961408}
      transformDetails:
        forward: {x: 0.49684158, y: 0.4302922, z: 0.75365597}
        right: {x: -0.11865689, y: 0.8939525, z: -0.43216953}
        up: {x: -0.85969186, y: 0.12529309, z: 0.49520946}
        worldToLocalMatrix:
          e00: -0.1186562
          e01: 0.89395213
          e02: -0.4321695
          e03: -1.1987349
          e10: -0.85969156
          e11: 0.12529367
          e12: 0.49520916
          e13: -0.21522847
          e20: 0.49684125
          e21: 0.43029195
          e22: 0.7536561
          e23: -1.165115
          e30: 0
          e31: 0
          e32: 0
          e33: 1
        localToWorldMatrix:
          e00: -0.1186562
          e01: -0.85969156
          e02: 0.49684125
          e03: 0.25160992
          e10: 0.89395213
          e11: 0.12529367
          e12: 0.43029195
          e13: 1.599918
          e20: -0.4321695
          e21: 0.49520916
          e22: 0.7536561
          e23: 0.4666226
          e30: 0
          e31: 0
          e32: 0
          e33: 1
    - transformName: b_r_pinky3
      position: {x: 0.24919984, y: 1.6180754, z: 0.45784464}
      localPosition: {x: 0.020311384, y: -6.661338e-18, z: 1.7763568e-17}
      rotation: {x: 0.04556334, y: 0.31828707, z: 0.63569546, w: 0.7017901}
      localRotation: {x: 0.00084436685, y: -0.04911443, z: -0.03392192, w: 0.9982166}
      transformDetails:
        forward: {x: 0.50467026, y: 0.34071547, z: 0.79323465}
        right: {x: -0.01083073, y: 0.921254, z: -0.3888126}
        up: {x: -0.86324507, y: 0.18763056, z: 0.4686191}
        worldToLocalMatrix:
          e00: -0.010829985
          e01: 0.9212534
          e02: -0.38881236
          e03: -1.3099428
          e10: -0.86324453
          e11: 0.18763107
          e12: 0.46861857
          e13: -0.30303532
          e20: 0.5046698
          e21: 0.34071526
          e22: 0.79323494
          e23: -1.0402449
          e30: 0
          e31: 0
          e32: 0
          e33: 1
        localToWorldMatrix:
          e00: -0.010829985
          e01: -0.86324453
          e02: 0.5046698
          e03: 0.24919984
          e10: 0.9212534
          e11: 0.18763107
          e12: 0.34071526
          e13: 1.6180754
          e20: -0.38881236
          e21: 0.46861857
          e22: 0.79323494
          e23: 0.45784464
          e30: 0
          e31: 0
          e32: 0
          e33: 1
    - transformName: b_r_pinky_null
      position: {x: 0.24907087, y: 1.6290464, z: 0.45321435}
      localPosition: {x: 0.011908775, y: -1.6653345e-18, z: -4.440892e-18}
      rotation: {x: 0.04556334, y: 0.31828707, z: 0.63569546, w: 0.7017901}
      localRotation: {x: -2.7755576e-17, y: 1.3877788e-16, z: 6.938894e-18, w: 1}
      transformDetails:
        forward: {x: 0.50467026, y: 0.34071547, z: 0.79323465}
        right: {x: -0.01083073, y: 0.921254, z: -0.3888126}
        up: {x: -0.86324507, y: 0.18763056, z: 0.4686191}
        worldToLocalMatrix:
          e00: -0.010829985
          e01: 0.9212534
          e02: -0.38881236
          e03: -1.3218516
          e10: -0.86324453
          e11: 0.18763107
          e12: 0.46861857
          e13: -0.30303532
          e20: 0.5046698
          e21: 0.34071526
          e22: 0.79323494
          e23: -1.0402449
          e30: 0
          e31: 0
          e32: 0
          e33: 1
        localToWorldMatrix:
          e00: -0.010829985
          e01: -0.86324453
          e02: 0.5046698
          e03: 0.24907087
          e10: 0.9212534
          e11: 0.18763107
          e12: 0.34071526
          e13: 1.6290464
          e20: -0.38881236
          e21: 0.46861857
          e22: 0.79323494
          e23: 0.45321435
          e30: 0
          e31: 0
          e32: 0
          e33: 1
  - Name: Other
    joints: []
  bonesPositionsRelativeToWristCache:
  - {x: 0.020069275, y: -0.011554104, z: 0.010496533}
  - {x: 0.03283413, y: -0.0127473, z: 0.031787053}
  - {x: 0.056980737, y: -0.011824451, z: 0.05353963}
  - {x: 0.08716842, y: -0.011723919, z: 0.068727426}
  - {x: 0.096793726, y: -0.010668486, z: 0.08000391}
  - {x: 0.095996246, y: -0.007316443, z: 0.023550704}
  - {x: 0.13373926, y: -0.00406461, z: 0.025386553}
  - {x: 0.15797347, y: -0.0057042134, z: 0.0262128}
  - {x: 0.16952267, y: -0.0048588924, z: 0.02595433}
  - {x: 0.09564661, y: -0.002543165, z: 0.001725912}
  - {x: 0.1385239, y: -0.0032541219, z: -0.00021223458}
  - {x: 0.16603091, y: -0.0036203866, z: -0.0016994883}
  - {x: 0.17821346, y: -0.003512618, z: -0.002405589}
  - {x: 0.08869383, y: -0.0065293317, z: -0.017465215}
  - {x: 0.12741402, y: -0.008108481, z: -0.021818262}
  - {x: 0.15375313, y: -0.009972122, z: -0.02480538}
  - {x: 0.16556159, y: -0.011673012, z: -0.025270136}
  - {x: 0.034073584, y: -0.009419855, z: -0.02299855}
  - {x: 0.07789586, y: -0.013691179, z: -0.03505406}
  - {x: 0.10660969, y: -0.0086033335, z: -0.044717077}
  - {x: 0.1250284, y: -0.015943263, z: -0.04912469}
  - {x: 0.13594358, y: -0.020551756, z: -0.05032519}
