%YAML 1.1
%TAG !u! tag:unity3d.com,2011:
--- !u!114 &11400000
MonoBehaviour:
  m_ObjectHideFlags: 0
  m_CorrespondingSourceObject: {fileID: 0}
  m_PrefabInstance: {fileID: 0}
  m_PrefabAsset: {fileID: 0}
  m_GameObject: {fileID: 0}
  m_Enabled: 1
  m_EditorHideFlags: 0
  m_Script: {fileID: 11500000, guid: 5667af4d71b6ae142a600bb12b008d4e, type: 3}
  m_Name: Scissor
  m_EditorClassIdentifier: 
  handStructName: Scissor
  evaluatedJoints: -1
  jointsTolerance: 0.0385
  enableOrientationCheck: 0
  orientationTolerance: 0.8
  wrist:
    transformName: Wrist
    position: {x: -0.21650808, y: 1.6440243, z: 0.93551546}
    localPosition: {x: 0, y: 0, z: 0}
    rotation: {x: 0.13140734, y: 0.25817555, z: 0.76740336, w: 0.5719875}
    localRotation: {x: 0.079936564, y: 0.08321387, z: 0.05979681, w: 0.99151903}
    transformDetails:
      forward: {x: 0.49703124, y: 0.24592285, z: 0.832155}
      right: {x: -0.31112504, y: 0.9457426, z: -0.09366152}
      up: {x: -0.810038, y: -0.21235158, z: 0.54657626}
      worldToLocalMatrix:
        e00: -0.31112498
        e01: 0.94574255
        e02: -0.09366143
        e03: -1.5345632
        e10: -0.81003773
        e11: -0.21235153
        e12: 0.5465763
        e13: -0.33759922
        e20: 0.49703133
        e21: 0.24592283
        e22: 0.832155
        e23: -1.0751857
        e30: 0
        e31: 0
        e32: 0
        e33: 1
      localToWorldMatrix:
        e00: -0.31112495
        e01: -0.81003773
        e02: 0.49703133
        e03: -0.21650808
        e10: 0.9457425
        e11: -0.21235153
        e12: 0.24592283
        e13: 1.6440243
        e20: -0.09366143
        e21: 0.5465763
        e22: 0.832155
        e23: 0.93551546
        e30: 0
        e31: 0
        e32: 0
        e33: 1
  fingers:
  - Name: Thumb
    joints:
    - transformName: b_r_thumb0
      position: {x: -0.2081758, y: 1.6680396, z: 0.9360553}
      localPosition: {x: 0.020069301, y: -0.011554099, z: 0.0104965195}
      rotation: {x: 0.6328494, y: 0.38280094, z: 0.38059568, w: 0.55507827}
      localRotation: {x: 0.48454273, y: -0.35998803, z: -0.09518951, w: 0.7915592}
      transformDetails:
        forward: {x: 0.90668845, y: -0.41117716, z: -0.09406984}
        right: {x: 0.41722074, y: 0.9070315, z: 0.056750536}
        up: {x: 0.061989903, y: -0.09070286, z: 0.9939467}
        worldToLocalMatrix:
          e00: 0.4172207
          e01: 0.90703166
          e02: 0.056750745
          e03: -1.4792312
          e10: 0.061989874
          e11: -0.09070316
          e12: 0.99394697
          e13: -0.7661881
          e20: 0.90668875
          e21: -0.41117722
          e22: -0.09406999
          e23: 0.9626652
          e30: 0
          e31: 0
          e32: 0
          e33: 1
        localToWorldMatrix:
          e00: 0.4172207
          e01: 0.061989874
          e02: 0.9066887
          e03: -0.2081758
          e10: 0.9070316
          e11: -0.09070316
          e12: -0.41117722
          e13: 1.6680396
          e20: 0.056750745
          e21: 0.99394697
          e22: -0.09406997
          e23: 0.93605524
          e30: 0
          e31: 0
          e32: 0
          e33: 1
    - transformName: b_r_thumb1
      position: {x: -0.19780679, y: 1.6905816, z: 0.93746567}
      localPosition: {x: 0.024852559, y: 4.440892e-18, z: -1.1657341e-17}
      rotation: {x: 0.72174144, y: 0.50892884, z: 0.13888708, w: 0.4480975}
      localRotation: {x: 0.25757474, y: -0.075833924, z: -0.1392429, w: 0.953161}
      transformDetails:
        forward: {x: 0.65658057, y: -0.5054538, z: -0.5598385}
        right: {x: 0.44340366, y: 0.8591, z: -0.25561836}
        up: {x: 0.6101601, y: -0.0804006, z: 0.78818834}
        worldToLocalMatrix:
          e00: 0.44340384
          e01: 0.8590997
          e02: -0.25561842
          e03: -1.1250365
          e10: 0.6101601
          e11: -0.08040033
          e12: 0.7881882
          e13: -0.48228222
          e20: 0.65658045
          e21: -0.5054537
          e22: -0.5598382
          e23: 1.5092161
          e30: 0
          e31: 0
          e32: 0
          e33: 1
        localToWorldMatrix:
          e00: 0.44340384
          e01: 0.6101601
          e02: 0.6565803
          e03: -0.19780679
          e10: 0.8590997
          e11: -0.08040033
          e12: -0.5054537
          e13: 1.6905816
          e20: -0.25561842
          e21: 0.7881882
          e22: -0.5598382
          e23: 0.93746567
          e30: 0
          e31: 0
          e32: 0
          e33: 1
    - transformName: b_r_thumb2
      position: {x: -0.18339042, y: 1.7185135, z: 0.92915475}
      localPosition: {x: 0.03251291, y: -4.440892e-18, z: 3.2196467e-17}
      rotation: {x: 0.38405693, y: 0.7740588, z: -0.015418218, w: 0.5030862}
      localRotation: {x: -0.07564972, y: 0.026350306, z: -0.4399936, w: 0.89442074}
      transformDetails:
        forward: {x: 0.76699364, y: -0.4102967, z: -0.49333355}
        right: {x: -0.19880953, y: 0.5790519, z: -0.7906796}
        up: {x: 0.61007863, y: 0.7045251, z: 0.36255828}
        worldToLocalMatrix:
          e00: -0.19880942
          e01: 0.57905173
          e02: -0.7906796
          e03: -0.29690415
          e10: 0.6100785
          e11: 0.7045254
          e12: 0.3625582
          e13: -1.4357264
          e20: 0.7669937
          e21: -0.4102965
          e22: -0.49333328
          e23: 1.3041422
          e30: 0
          e31: 0
          e32: 0
          e33: 1
        localToWorldMatrix:
          e00: -0.19880942
          e01: 0.6100785
          e02: 0.76699376
          e03: -0.18339042
          e10: 0.57905173
          e11: 0.7045254
          e12: -0.41029653
          e13: 1.7185135
          e20: -0.7906796
          e21: 0.3625582
          e22: -0.49333328
          e23: 0.92915475
          e30: 0
          e31: 0
          e32: 0
          e33: 1
    - transformName: b_r_thumb3
      position: {x: -0.19010879, y: 1.7380813, z: 0.9024353}
      localPosition: {x: 0.03379309, y: 1.3322676e-17, z: -1.6653344e-17}
      rotation: {x: 0.14059293, y: 0.83903056, z: -0.2462489, w: 0.46435246}
      localRotation: {x: 0.070067495, y: -0.029737374, z: -0.33013302, w: 0.9408605}
      transformDetails:
        forward: {x: 0.7099701, y: -0.54379004, z: -0.4474773}
        right: {x: -0.5292216, y: 0.0072309673, z: -0.8484535}
        up: {x: 0.4646161, y: 0.8391902, z: -0.28265136}
        worldToLocalMatrix:
          e00: -0.52922106
          e01: 0.007231068
          e02: -0.84845334
          e03: 0.65249646
          e10: 0.46461627
          e11: 0.8391903
          e12: -0.28265125
          e13: -1.115179
          e20: 0.70996976
          e21: -0.5437901
          e22: -0.4474767
          e23: 1.4839418
          e30: 0
          e31: 0
          e32: 0
          e33: 1
        localToWorldMatrix:
          e00: -0.52922106
          e01: 0.4646162
          e02: 0.70996976
          e03: -0.19010882
          e10: 0.007231068
          e11: 0.83919024
          e12: -0.5437901
          e13: 1.7380813
          e20: -0.84845334
          e21: -0.28265122
          e22: -0.44747669
          e23: 0.90243524
          e30: 0
          e31: 0
          e32: 0
          e33: 1
    - transformName: b_r_thumb_null
      position: {x: -0.19797482, y: 1.7381889, z: 0.8898244}
      localPosition: {x: 0.014863368, y: 0, z: 8.881784e-18}
      rotation: {x: 0.14059293, y: 0.83903056, z: -0.2462489, w: 0.46435246}
      localRotation: {x: -1.3877788e-17, y: -1.8388069e-16, z: -2.4980018e-16, w: 1}
      transformDetails:
        forward: {x: 0.7099701, y: -0.54379004, z: -0.4474773}
        right: {x: -0.5292216, y: 0.0072309673, z: -0.8484535}
        up: {x: 0.4646161, y: 0.8391902, z: -0.28265136}
        worldToLocalMatrix:
          e00: -0.52922106
          e01: 0.007231068
          e02: -0.84845334
          e03: 0.6376331
          e10: 0.46461627
          e11: 0.8391903
          e12: -0.28265125
          e13: -1.115179
          e20: 0.70996976
          e21: -0.5437901
          e22: -0.4474767
          e23: 1.4839418
          e30: 0
          e31: 0
          e32: 0
          e33: 1
        localToWorldMatrix:
          e00: -0.52922106
          e01: 0.4646162
          e02: 0.70996976
          e03: -0.19797482
          e10: 0.007231068
          e11: 0.83919024
          e12: -0.5437901
          e13: 1.7381889
          e20: -0.84845334
          e21: -0.28265122
          e22: -0.44747669
          e23: 0.8898244
          e30: 0
          e31: 0
          e32: 0
          e33: 1
  - Name: Index
    joints:
    - transformName: b_r_index1
      position: {x: -0.22874291, y: 1.7421573, z: 0.9421231}
      localPosition: {x: 0.09599624, y: -0.0073164543, z: 0.02355068}
      rotation: {x: 0.19244125, y: 0.24488668, z: 0.6976013, w: 0.64525163}
      localRotation: {x: 0.033106383, y: -0.08252616, z: -0.07864529, w: 0.9929292}
      transformDetails:
        forward: {x: 0.58452165, y: 0.09332049, z: 0.80599374}
        right: {x: -0.09323419, y: 0.99450934, z: -0.04753253}
        up: {x: -0.80600417, y: -0.047362484, z: 0.5900126}
        worldToLocalMatrix:
          e00: -0.0932338
          e01: 0.99450904
          e02: -0.04753247
          e03: -1.7091362
          e10: -0.8060038
          e11: -0.04736212
          e12: 0.59001243
          e13: -0.65771973
          e20: 0.5845215
          e21: 0.09332047
          e22: 0.8059939
          e23: -0.7882194
          e30: 0
          e31: 0
          e32: 0
          e33: 1
        localToWorldMatrix:
          e00: -0.093233794
          e01: -0.8060038
          e02: 0.5845215
          e03: -0.22874288
          e10: 0.99450904
          e11: -0.04736212
          e12: 0.09332047
          e13: 1.7421573
          e20: -0.04753247
          e21: 0.59001243
          e22: 0.8059939
          e23: 0.9421231
          e30: 0
          e31: 0
          e32: 0
          e33: 1
    - transformName: b_r_index2
      position: {x: -0.23227896, y: 1.7798764, z: 0.9403204}
      localPosition: {x: 0.0379273, y: 3.330669e-18, z: 1.3322676e-17}
      rotation: {x: 0.15894012, y: 0.2397505, z: 0.6716925, w: 0.68270576}
      localRotation: {x: -0.026062647, y: 0.0058983616, z: -0.0500614, w: 0.99838865}
      transformDetails:
        forward: {x: 0.54087585, y: 0.105058536, z: 0.83451545}
        right: {x: -0.017302215, y: 0.9933486, z: -0.11384033}
        up: {x: -0.84092474, y: 0.04713447, z: 0.5390959}
        worldToLocalMatrix:
          e00: -0.017301908
          e01: 0.9933485
          e02: -0.113840386
          e03: -1.6650099
          e10: -0.8409245
          e11: 0.047134787
          e12: 0.53909576
          e13: -0.7861459
          e20: 0.5408758
          e21: 0.105058566
          e22: 0.8345155
          e23: -0.8460691
          e30: 0
          e31: 0
          e32: 0
          e33: 1
        localToWorldMatrix:
          e00: -0.017301908
          e01: -0.84092456
          e02: 0.5408758
          e03: -0.23227896
          e10: 0.9933485
          e11: 0.04713478
          e12: 0.105058566
          e13: 1.7798764
          e20: -0.113840386
          e21: 0.5390958
          e22: 0.8345156
          e23: 0.9403204
          e30: 0
          e31: 0
          e32: 0
          e33: 1
    - transformName: b_r_index3
      position: {x: -0.23269947, y: 1.8040184, z: 0.93755364}
      localPosition: {x: 0.024303643, y: -5.2735593e-18, z: -8.881784e-18}
      rotation: {x: 0.13126054, y: 0.24566135, z: 0.68273205, w: 0.6754986}
      localRotation: {x: -0.016427996, y: 0.026110066, z: 0.0048021674, w: 0.9995126}
      transformDetails:
        forward: {x: 0.51111937, y: 0.15810911, z: 0.8448423}
        right: {x: -0.052945085, y: 0.98686033, z: -0.15265623}
        up: {x: -0.8578778, y: 0.03329525, z: 0.51277435}
        worldToLocalMatrix:
          e00: -0.052944854
          e01: 0.98686016
          e02: -0.1526562
          e03: -1.6495107
          e10: -0.8578778
          e11: 0.033295434
          e12: 0.5127742
          e13: -0.7404466
          e20: 0.51111925
          e21: 0.1581091
          e22: 0.84484255
          e23: -0.9583797
          e30: 0
          e31: 0
          e32: 0
          e33: 1
        localToWorldMatrix:
          e00: -0.052944854
          e01: -0.85787773
          e02: 0.51111925
          e03: -0.23269947
          e10: 0.9868601
          e11: 0.03329544
          e12: 0.1581091
          e13: 1.8040184
          e20: -0.1526562
          e21: 0.5127742
          e22: 0.84484255
          e23: 0.93755364
          e30: 0
          e31: 0
          e32: 0
          e33: 1
    - transformName: b_r_index_null
      position: {x: -0.23331277, y: 1.8154492, z: 0.9357854}
      localPosition: {x: 0.011583036, y: 6.661338e-18, z: 0}
      rotation: {x: 0.13126054, y: 0.24566135, z: 0.68273205, w: 0.6754986}
      localRotation: {x: 5.2041704e-18, y: 1.3877788e-17, z: -1.7997756e-17, w: 1}
      transformDetails:
        forward: {x: 0.51111937, y: 0.15810911, z: 0.8448423}
        right: {x: -0.052945085, y: 0.98686033, z: -0.15265623}
        up: {x: -0.8578778, y: 0.03329525, z: 0.51277435}
        worldToLocalMatrix:
          e00: -0.052944854
          e01: 0.98686016
          e02: -0.1526562
          e03: -1.6610937
          e10: -0.8578778
          e11: 0.033295434
          e12: 0.5127742
          e13: -0.7404466
          e20: 0.51111925
          e21: 0.1581091
          e22: 0.84484255
          e23: -0.9583797
          e30: 0
          e31: 0
          e32: 0
          e33: 1
        localToWorldMatrix:
          e00: -0.052944854
          e01: -0.85787773
          e02: 0.51111925
          e03: -0.23331277
          e10: 0.9868601
          e11: 0.03329544
          e12: 0.1581091
          e13: 1.8154492
          e20: -0.1526562
          e21: 0.5127742
          e22: 0.84484255
          e23: 0.9357854
          e30: 0
          e31: 0
          e32: 0
          e33: 1
  - Name: Middle
    joints:
    - transformName: b_r_middle1
      position: {x: -0.24334826, y: 1.7354459, z: 0.92660326}
      localPosition: {x: 0.095646605, y: -0.0025431544, z: 0.0017259055}
      rotation: {x: 0.064255305, y: 0.28349176, z: 0.6921694, w: 0.66060966}
      localRotation: {x: -0.011204474, y: 0.033246893, z: -0.13170561, w: 0.9906678}
      transformDetails:
        forward: {x: 0.4635059, y: 0.30755332, z: 0.83100736}
        right: {x: -0.11893222, y: 0.9509393, z: -0.28560367}
        up: {x: -0.87807596, y: 0.033545453, z: 0.477344}
        worldToLocalMatrix:
          e00: -0.11893224
          e01: 0.9509394
          e02: -0.2856037
          e03: -1.4146044
          e10: -0.87807596
          e11: 0.033545442
          e12: 0.477344
          e13: -0.7142031
          e20: 0.463506
          e21: 0.30755335
          e22: 0.8310075
          e23: -1.190963
          e30: 0
          e31: 0
          e32: 0
          e33: 1
        localToWorldMatrix:
          e00: -0.118932255
          e01: -0.87807596
          e02: 0.463506
          e03: -0.24334823
          e10: 0.9509395
          e11: 0.03354546
          e12: 0.30755335
          e13: 1.7354459
          e20: -0.2856037
          e21: 0.47734404
          e22: 0.8310075
          e23: 0.92660326
          e30: 0
          e31: 0
          e32: 0
          e33: 1
    - transformName: b_r_middle2
      position: {x: -0.24845363, y: 1.7762668, z: 0.9143432}
      localPosition: {x: 0.04292699, y: -4.440892e-18, z: 4.440892e-18}
      rotation: {x: 0.054131106, y: 0.27850813, z: 0.6963436, w: 0.6592485}
      localRotation: {x: -0.011233581, y: 0.004369567, z: 0.0011498787, w: 0.9999267}
      transformDetails:
        forward: {x: 0.44259983, y: 0.316503, z: 0.83900607}
        right: {x: -0.12492241, y: 0.9482788, z: -0.2918244}
        up: {x: -0.887975, y: 0.024350798, z: 0.4592464}
        worldToLocalMatrix:
          e00: -0.1249227
          e01: 0.94827896
          e02: -0.29182443
          e03: -1.4486063
          e10: -0.8879751
          e11: 0.024350507
          e12: 0.4592465
          e13: -0.68378246
          e20: 0.44259983
          e21: 0.3165031
          e22: 0.8390062
          e23: -1.2193679
          e30: 0
          e31: 0
          e32: 0
          e33: 1
        localToWorldMatrix:
          e00: -0.124922715
          e01: -0.8879751
          e02: 0.44259983
          e03: -0.24845363
          e10: 0.948279
          e11: 0.024350507
          e12: 0.31650314
          e13: 1.7762668
          e20: -0.29182443
          e21: 0.4592465
          e22: 0.8390061
          e23: 0.9143431
          e30: 0
          e31: 0
          e32: 0
          e33: 1
    - transformName: b_r_middle3
      position: {x: -0.2518952, y: 1.8023915, z: 0.9063035}
      localPosition: {x: 0.027549583, y: 1.110223e-18, z: 8.881784e-18}
      rotation: {x: 0.024485812, y: 0.2481657, z: 0.7069457, w: 0.6618476}
      localRotation: {x: -0.043765824, y: 0.00049007445, z: -0.0014344975, w: 0.99904066}
      transformDetails:
        forward: {x: 0.36311603, y: 0.3184676, z: 0.8756285}
        right: {x: -0.122716926, y: 0.94793373, z: -0.29387546}
        up: {x: -0.92362756, y: -0.00074361125, z: 0.3832911}
        worldToLocalMatrix:
          e00: -0.122716695
          e01: 0.9479335
          e02: -0.29387534
          e03: -1.4731189
          e10: -0.9236273
          e11: -0.0007434335
          e12: 0.383291
          e13: -0.5786953
          e20: 0.36311597
          e21: 0.3184675
          e22: 0.87562865
          e23: -1.2761213
          e30: 0
          e31: 0
          e32: 0
          e33: 1
        localToWorldMatrix:
          e00: -0.12271669
          e01: -0.9236273
          e02: 0.36311594
          e03: -0.2518952
          e10: 0.9479335
          e11: -0.00074342603
          e12: 0.3184675
          e13: 1.8023915
          e20: -0.29387534
          e21: 0.383291
          e22: 0.8756286
          e23: 0.9063035
          e30: 0
          e31: 0
          e32: 0
          e33: 1
    - transformName: b_r_middle_null
      position: {x: -0.25339276, y: 1.8139596, z: 0.9027172}
      localPosition: {x: 0.0122034745, y: 6.661338e-18, z: 0}
      rotation: {x: 0.024485812, y: 0.2481657, z: 0.7069457, w: 0.6618476}
      localRotation: {x: 2.0816682e-17, y: -1.3877788e-17, z: -1.7347235e-17, w: 1}
      transformDetails:
        forward: {x: 0.36311603, y: 0.3184676, z: 0.8756285}
        right: {x: -0.122716926, y: 0.94793373, z: -0.29387546}
        up: {x: -0.92362756, y: -0.00074361125, z: 0.3832911}
        worldToLocalMatrix:
          e00: -0.122716695
          e01: 0.9479335
          e02: -0.29387534
          e03: -1.4853224
          e10: -0.9236273
          e11: -0.0007434335
          e12: 0.383291
          e13: -0.5786953
          e20: 0.36311597
          e21: 0.3184675
          e22: 0.87562865
          e23: -1.2761213
          e30: 0
          e31: 0
          e32: 0
          e33: 1
        localToWorldMatrix:
          e00: -0.12271669
          e01: -0.9236273
          e02: 0.36311594
          e03: -0.25339276
          e10: 0.9479335
          e11: -0.00074342603
          e12: 0.3184675
          e13: 1.8139596
          e20: -0.29387534
          e21: 0.383291
          e22: 0.8756286
          e23: 0.90271723
          e30: 0
          e31: 0
          e32: 0
          e33: 1
  - Name: Ring
    joints:
    - transformName: b_r_ring1
      position: {x: -0.24749471, y: 1.7249972, z: 0.9091057}
      localPosition: {x: 0.08869379, y: -0.006529307, z: -0.017465241}
      rotation: {x: -0.1214286, y: 0.25368795, z: 0.38960055, w: 0.87698865}
      localRotation: {x: -0.09060277, y: 0.06307039, z: -0.51484376, w: 0.8501466}
      transformDetails:
        forward: {x: 0.35034558, y: 0.41065693, z: 0.841795}
        right: {x: 0.5677077, y: 0.6217406, z: -0.53958017}
        up: {x: -0.7449604, y: 0.66693306, z: -0.0153090805}
        worldToLocalMatrix:
          e00: 0.56770796
          e01: 0.62174046
          e02: -0.5395802
          e03: -0.44146037
          e10: -0.7449603
          e11: 0.66693324
          e12: -0.01530914
          e13: -1.320914
          e20: 0.3503456
          e21: 0.41065693
          e22: 0.84179515
          e23: -1.386954
          e30: 0
          e31: 0
          e32: 0
          e33: 1
        localToWorldMatrix:
          e00: 0.5677079
          e01: -0.7449603
          e02: 0.35034558
          e03: -0.24749471
          e10: 0.62174046
          e11: 0.6669332
          e12: 0.410657
          e13: 1.7249972
          e20: -0.5395802
          e21: -0.01530914
          e22: 0.84179515
          e23: 0.9091058
          e30: 0
          e31: 0
          e32: 0
          e33: 1
    - transformName: b_r_ring2
      position: {x: -0.22535633, y: 1.7492427, z: 0.88806415}
      localPosition: {x: 0.0389961, y: -8.881784e-18, z: 8.881784e-18}
      rotation: {x: -0.29921767, y: 0.030202478, z: -0.41666692, w: 0.8578726}
      localRotation: {x: -0.040769964, y: -0.023974122, z: -0.7718801, w: 0.63400644}
      transformDetails:
        forward: {x: 0.30116796, y: 0.48821256, z: 0.8191132}
        right: {x: 0.65095294, y: -0.7329685, z: 0.19752845}
        up: {x: 0.6968201, y: 0.47371492, z: -0.53855}
        worldToLocalMatrix:
          e00: 0.65095323
          e01: -0.73296833
          e02: 0.19752848
          e03: 1.253418
          e10: 0.69682
          e11: 0.47371516
          e12: -0.5385501
          e13: -0.19334295
          e20: 0.30116785
          e21: 0.48821253
          e22: 0.81911325
          e23: -1.5135572
          e30: 0
          e31: 0
          e32: 0
          e33: 1
        localToWorldMatrix:
          e00: 0.65095323
          e01: 0.69681996
          e02: 0.30116788
          e03: -0.22535633
          e10: -0.73296833
          e11: 0.47371516
          e12: 0.48821256
          e13: 1.7492427
          e20: 0.19752848
          e21: -0.53855
          e22: 0.8191133
          e23: 0.88806415
          e30: 0
          e31: 0
          e32: 0
          e33: 1
    - transformName: b_r_ring3
      position: {x: -0.20805831, y: 1.7297652, z: 0.8933132}
      localPosition: {x: 0.026573397, y: 4.440892e-18, z: -4.440892e-18}
      rotation: {x: -0.29938427, y: -0.15736857, z: -0.8248032, w: 0.45310503}
      localRotation: {x: -0.030775176, y: -0.026634851, z: -0.5749117, w: 0.81720257}
      transformDetails:
        forward: {x: 0.3512572, y: 0.5309012, z: 0.7712084}
        right: {x: -0.41013032, y: -0.65321755, z: 0.63647515}
        up: {x: 0.8416723, y: -0.53986245, z: -0.011708826}
        worldToLocalMatrix:
          e00: -0.41013008
          e01: -0.6532176
          e02: 0.6364751
          e03: 0.47601056
          e10: 0.84167206
          e11: -0.5398621
          e12: -0.011708766
          e13: 1.1194111
          e20: 0.35125712
          e21: 0.5309011
          e22: 0.7712085
          e23: -1.534183
          e30: 0
          e31: 0
          e32: 0
          e33: 1
        localToWorldMatrix:
          e00: -0.41013008
          e01: 0.84167206
          e02: 0.35125718
          e03: -0.20805828
          e10: -0.6532176
          e11: -0.5398621
          e12: 0.530901
          e13: 1.7297652
          e20: 0.6364751
          e21: -0.011708766
          e22: 0.7712086
          e23: 0.89331317
          e30: 0
          e31: 0
          e32: 0
          e33: 1
    - transformName: b_r_ring_null
      position: {x: -0.21295501, y: 1.7219661, z: 0.90091234}
      localPosition: {x: 0.01193941, y: -1.110223e-18, z: -6.661338e-18}
      rotation: {x: -0.29938427, y: -0.15736857, z: -0.8248032, w: 0.45310503}
      localRotation: {x: 4.1633363e-17, y: -5.551115e-17, z: 3.469447e-17, w: 1}
      transformDetails:
        forward: {x: 0.3512572, y: 0.5309012, z: 0.7712084}
        right: {x: -0.41013032, y: -0.65321755, z: 0.63647515}
        up: {x: 0.8416723, y: -0.53986245, z: -0.011708826}
        worldToLocalMatrix:
          e00: -0.41013008
          e01: -0.6532176
          e02: 0.6364751
          e03: 0.46407115
          e10: 0.84167206
          e11: -0.5398621
          e12: -0.011708766
          e13: 1.1194111
          e20: 0.35125712
          e21: 0.5309011
          e22: 0.7712085
          e23: -1.534183
          e30: 0
          e31: 0
          e32: 0
          e33: 1
        localToWorldMatrix:
          e00: -0.41013008
          e01: 0.84167206
          e02: 0.35125718
          e03: -0.21295501
          e10: -0.6532176
          e11: -0.5398621
          e12: 0.530901
          e13: 1.7219661
          e20: 0.6364751
          e21: -0.011708766
          e22: 0.7712086
          e23: 0.9009123
          e30: 0
          e31: 0
          e32: 0
          e33: 1
  - Name: Pinky
    joints:
    - transformName: b_r_pinky0
      position: {x: -0.23090984, y: 1.6725936, z: 0.90803707}
      localPosition: {x: 0.034073558, y: -0.009419835, z: -0.022998573}
      rotation: {x: -0.10364142, y: 0.17372529, z: 0.804298, w: 0.5587332}
      localRotation: {x: -0.20703599, y: 0.14034285, z: -0.0183118, w: 0.96804166}
      transformDetails:
        forward: {x: 0.027415007, y: 0.39526963, z: 0.91815597}
        right: {x: -0.35415143, y: 0.8627657, z: -0.36084935}
        up: {x: -0.93478626, y: -0.31527355, z: 0.163638}
        worldToLocalMatrix:
          e00: -0.35415143
          e01: 0.8627658
          e02: -0.3608492
          e03: -1.197169
          e10: -0.9347863
          e11: -0.3152736
          e12: 0.16363803
          e13: 0.16288394
          e20: 0.027415067
          e21: 0.3952695
          e22: 0.9181561
          e23: -1.4885145
          e30: 0
          e31: 0
          e32: 0
          e33: 1
        localToWorldMatrix:
          e00: -0.35415143
          e01: -0.9347862
          e02: 0.027415037
          e03: -0.23090984
          e10: 0.8627658
          e11: -0.3152736
          e12: 0.39526948
          e13: 1.6725936
          e20: -0.36084917
          e21: 0.16363803
          e22: 0.918156
          e23: 0.90803707
          e30: 0
          e31: 0
          e32: 0
          e33: 1
    - transformName: b_r_pinky1
      position: {x: -0.24707605, y: 1.7119805, z: 0.8915659}
      localPosition: {x: 0.04565054, y: -0.0000009982332, z: 0.0000021940255}
      rotation: {x: -0.20203887, y: 0.15666795, z: 0.34648374, w: 0.90254354}
      localRotation: {x: 0.04646977, y: 0.05733042, z: -0.5511839, w: 0.8311138}
      transformDetails:
        forward: {x: 0.14279294, y: 0.47326356, z: 0.8692709}
        right: {x: 0.71080834, y: 0.5621273, z: -0.42280567}
        up: {x: -0.68873936, y: 0.67825866, z: -0.25613195}
        worldToLocalMatrix:
          e00: 0.7108086
          e01: 0.562127
          e02: -0.4228056
          e03: -0.40976766
          e10: -0.68873906
          e11: 0.6782587
          e12: -0.25613195
          e13: -1.1029782
          e20: 0.14279288
          e21: 0.47326344
          e22: 0.86927086
          e23: -1.5499494
          e30: 0
          e31: 0
          e32: 0
          e33: 1
        localToWorldMatrix:
          e00: 0.7108086
          e01: -0.68873906
          e02: 0.14279291
          e03: -0.24707605
          e10: 0.56212705
          e11: 0.6782587
          e12: 0.4732634
          e13: 1.7119805
          e20: -0.4228056
          e21: -0.25613195
          e22: 0.8692708
          e23: 0.8915659
          e30: 0
          e31: 0
          e32: 0
          e33: 1
    - transformName: b_r_pinky2
      position: {x: -0.22523968, y: 1.7292492, z: 0.8785771}
      localPosition: {x: 0.030720409, y: 1.110223e-18, z: -3.7747583e-17}
      rotation: {x: -0.33472863, y: -0.03669101, z: -0.3125412, w: 0.8882166}
      localRotation: {x: -0.0864005, y: 0.0068531707, z: -0.64968866, w: 0.7552434}
      transformDetails:
        forward: {x: 0.14405385, y: 0.61755794, z: 0.773221}
        right: {x: 0.80194354, y: -0.5306455, z: 0.2744121}
        up: {x: 0.57977164, y: 0.5805495, z: -0.5716881}
        worldToLocalMatrix:
          e00: 0.8019436
          e01: -0.5306454
          e02: 0.27441207
          e03: 0.8571554
          e10: 0.5797715
          e11: 0.5805496
          e12: -0.5716882
          e13: -0.37105525
          e20: 0.1440539
          e21: 0.61755794
          e22: 0.77322114
          e23: -1.7147994
          e30: 0
          e31: 0
          e32: 0
          e33: 1
        localToWorldMatrix:
          e00: 0.80194366
          e01: 0.5797716
          e02: 0.14405388
          e03: -0.22523968
          e10: -0.5306453
          e11: 0.5805496
          e12: 0.61755794
          e13: 1.7292492
          e20: 0.27441204
          e21: -0.5716882
          e22: 0.77322114
          e23: 0.8785772
          e30: 0
          e31: 0
          e32: 0
          e33: 1
    - transformName: b_r_pinky3
      position: {x: -0.2089511, y: 1.718471, z: 0.88415086}
      localPosition: {x: 0.020311384, y: -6.661338e-18, z: 1.7763568e-17}
      rotation: {x: -0.2712409, y: -0.2497977, z: -0.7310755, w: 0.5740717}
      localRotation: {x: 0.0024856778, y: -0.040873233, z: -0.54359466, w: 0.83834845}
      transformDetails:
        forward: {x: 0.10979158, y: 0.6766654, z: 0.728059}
        right: {x: -0.1937407, y: -0.70386887, z: 0.6833987}
        up: {x: 0.97489023, y: -0.21608615, z: 0.053818524}
        worldToLocalMatrix:
          e00: -0.19374059
          e01: -0.7038686
          e02: 0.6833987
          e03: 0.564868
          e10: 0.97489
          e11: -0.21608591
          e12: 0.053818524
          e13: 0.52745795
          e20: 0.109791785
          e21: 0.6766655
          e22: 0.7280592
          e23: -1.7836031
          e30: 0
          e31: 0
          e32: 0
          e33: 1
        localToWorldMatrix:
          e00: -0.19374058
          e01: 0.97489
          e02: 0.109791785
          e03: -0.2089511
          e10: -0.7038686
          e11: -0.21608591
          e12: 0.6766654
          e13: 1.718471
          e20: 0.6833988
          e21: 0.053818524
          e22: 0.7280592
          e23: 0.88415086
          e30: 0
          e31: 0
          e32: 0
          e33: 1
    - transformName: b_r_pinky_null
      position: {x: -0.2112583, y: 1.7100888, z: 0.8922893}
      localPosition: {x: 0.011908775, y: -1.6653345e-18, z: -4.440892e-18}
      rotation: {x: -0.2712409, y: -0.2497977, z: -0.7310755, w: 0.5740717}
      localRotation: {x: -2.7755576e-17, y: 1.3877788e-16, z: 6.938894e-18, w: 1}
      transformDetails:
        forward: {x: 0.10979158, y: 0.6766654, z: 0.728059}
        right: {x: -0.1937407, y: -0.70386887, z: 0.6833987}
        up: {x: 0.97489023, y: -0.21608615, z: 0.053818524}
        worldToLocalMatrix:
          e00: -0.19374059
          e01: -0.7038686
          e02: 0.6833987
          e03: 0.5529592
          e10: 0.97489
          e11: -0.21608591
          e12: 0.053818524
          e13: 0.52745795
          e20: 0.109791785
          e21: 0.6766655
          e22: 0.7280592
          e23: -1.7836031
          e30: 0
          e31: 0
          e32: 0
          e33: 1
        localToWorldMatrix:
          e00: -0.19374058
          e01: 0.97489
          e02: 0.109791785
          e03: -0.2112583
          e10: -0.7038686
          e11: -0.21608591
          e12: 0.6766654
          e13: 1.7100888
          e20: 0.6833988
          e21: 0.053818524
          e22: 0.7280592
          e23: 0.8922893
          e30: 0
          e31: 0
          e32: 0
          e33: 1
  - Name: Other
    joints: []
  bonesPositionsRelativeToWristCache:
  - {x: 0.020069214, y: -0.0115540605, z: 0.010496558}
  - {x: 0.038029987, y: -0.0239693, z: 0.022367511}
  - {x: 0.06073952, y: -0.04612104, z: 0.029486028}
  - {x: 0.0838385, y: -0.05943839, z: 0.008724245}
  - {x: 0.08756867, y: -0.05998227, z: -0.0056532063}
  - {x: 0.09599618, y: -0.00731642, z: 0.02355067}
  - {x: 0.13293765, y: -0.013447115, z: 0.02956895}
  - {x: 0.15615976, y: -0.01974531, z: 0.032994673}
  - {x: 0.16732684, y: -0.022642346, z: 0.034029506}
  - {x: 0.09564654, y: -0.0025431332, z: 0.0017259228}
  - {x: 0.13698936, y: -0.013777047, z: -0.0009750902}
  - {x: 0.16352038, y: -0.020931164, z: -0.0029512255}
  - {x: 0.17526263, y: -0.02413479, z: -0.0038351112}
  - {x: 0.08869368, y: -0.0065292916, z: -0.017465234}
  - {x: 0.10670666, y: -0.041111615, z: -0.018009089}
  - {x: 0.08241249, y: -0.048118558, z: -0.009833342}
  - {x: 0.075848356, y: -0.038342416, z: -0.007861474}
  - {x: 0.034073513, y: -0.009419786, z: -0.022998549}
  - {x: 0.077895775, y: -0.013691147, z: -0.03505408}
  - {x: 0.0886503, y: -0.042145856, z: -0.030762633}
  - {x: 0.07286708, y: -0.050004974, z: -0.020679079}
  - {x: 0.06489525, y: -0.04190781, z: -0.01711478}
