%YAML 1.1
%TAG !u! tag:unity3d.com,2011:
--- !u!114 &11400000
MonoBehaviour:
  m_ObjectHideFlags: 0
  m_CorrespondingSourceObject: {fileID: 0}
  m_PrefabInstance: {fileID: 0}
  m_PrefabAsset: {fileID: 0}
  m_GameObject: {fileID: 0}
  m_Enabled: 1
  m_EditorHideFlags: 0
  m_Script: {fileID: 11500000, guid: 5667af4d71b6ae142a600bb12b008d4e, type: 3}
  m_Name: ThumbUp
  m_EditorClassIdentifier: 
  handStructName: ThumbUp
  evaluatedJoints: -1
  jointsTolerance: 0.0385
  enableOrientationCheck: 1
  orientationTolerance: 0.8
  wrist:
    transformName: Wrist
    position: {x: 0.3, y: 1.5, z: 0.5}
    localPosition: {x: 0, y: 0, z: 0}
    rotation: {x: -0.15667576, y: 0.6606235, z: 0.66959417, w: 0.30111971}
    localRotation: {x: -0.23338306, y: 0.59288687, z: -0.22441238, w: 0.7373308}
    transformDetails:
      forward: {x: 0.18803518, y: 0.9790556, z: 0.07805863}
      right: {x: -0.7695595, y: 0.19624864, z: -0.60767186}
      up: {x: -0.61026335, y: 0.054192696, z: 0.790343}
      worldToLocalMatrix:
        e00: -0.7695594
        e01: 0.19624847
        e02: -0.60767186
        e03: 0.24033102
        e10: -0.61026335
        e11: 0.05419281
        e12: 0.79034287
        e13: -0.29338163
        e20: 0.18803501
        e21: 0.97905564
        e22: 0.07805872
        e23: -1.5640234
        e30: 0
        e31: 0
        e32: 0
        e33: 1
      localToWorldMatrix:
        e00: -0.7695594
        e01: -0.61026335
        e02: 0.18803501
        e03: 0.3
        e10: 0.19624847
        e11: 0.05419281
        e12: 0.97905564
        e13: 1.5
        e20: -0.60767186
        e21: 0.79034287
        e22: 0.07805872
        e23: 0.5
        e30: 0
        e31: 0
        e32: 0
        e33: 1
  fingers:
  - Name: Thumb
    joints:
    - transformName: b_r_thumb0
      position: {x: 0.29358023, y: 1.5135891, z: 0.4794921}
      localPosition: {x: 0.020069301, y: -0.011554099, z: 0.0104965195}
      rotation: {x: 0.3341853, y: 0.6019424, z: 0.48749936, w: 0.5369638}
      localRotation: {x: 0.26576257, y: -0.473622, z: 0.10232826, w: 0.83341557}
      transformDetails:
        forward: {x: 0.9722729, y: 0.22800225, z: 0.051971033}
        right: {x: -0.19998059, y: 0.92585963, z: -0.32061234}
        up: {x: -0.12121838, y: 0.30132914, z: 0.9457839}
        worldToLocalMatrix:
          e00: -0.19998036
          e01: 0.92585963
          e02: -0.32061228
          e03: -1.1889297
          e10: -0.12121832
          e11: 0.30132943
          e12: 0.94578373
          e13: -0.87399745
          e20: 0.97227275
          e21: 0.22800228
          e22: 0.051971287
          e23: -0.65546167
          e30: 0
          e31: 0
          e32: 0
          e33: 1
        localToWorldMatrix:
          e00: -0.19998036
          e01: -0.12121832
          e02: 0.97227275
          e03: 0.29358023
          e10: 0.92585963
          e11: 0.30132943
          e12: 0.22800228
          e13: 1.5135891
          e20: -0.32061228
          e21: 0.94578373
          e22: 0.051971287
          e23: 0.4794921
          e30: 0
          e31: 0
          e32: 0
          e33: 1
    - transformName: b_r_thumb1
      position: {x: 0.28861022, y: 1.536599, z: 0.47152406}
      localPosition: {x: 0.024852559, y: 4.440892e-18, z: -1.1657341e-17}
      rotation: {x: 0.34039575, y: 0.8055489, z: 0.31170875, w: 0.37156412}
      localRotation: {x: 0.26368272, y: 0.14711608, z: -0.0780649, w: 0.9501233}
      transformDetails:
        forward: {x: 0.81083477, y: 0.24923557, z: -0.52955663}
        right: {x: -0.49214274, y: 0.7800504, z: -0.38641748}
        up: {x: 0.31677127, y: 0.57393676, z: 0.755151}
        worldToLocalMatrix:
          e00: -0.49214202
          e01: 0.7800502
          e02: -0.3864174
          e03: -0.8743821
          e10: 0.31677133
          e11: 0.57393724
          e12: 0.75515056
          e13: -1.3294065
          e20: 0.81083447
          e21: 0.24923539
          e22: -0.5295558
          e23: -0.36729172
          e30: 0
          e31: 0
          e32: 0
          e33: 1
        localToWorldMatrix:
          e00: -0.49214202
          e01: 0.31677133
          e02: 0.81083447
          e03: 0.28861022
          e10: 0.7800502
          e11: 0.57393724
          e12: 0.24923539
          e13: 1.536599
          e20: -0.3864174
          e21: 0.75515056
          e22: -0.5295558
          e23: 0.47152406
          e30: 0
          e31: 0
          e32: 0
          e33: 1
    - transformName: b_r_thumb2
      position: {x: 0.27260926, y: 1.5619608, z: 0.4589605}
      localPosition: {x: 0.03251291, y: -4.440892e-18, z: 3.2196467e-17}
      rotation: {x: 0.2606014, y: 0.81049997, z: 0.38792667, w: 0.35311484}
      localRotation: {x: -0.08322265, y: 0.06751834, z: -0.031892944, w: 0.9937295}
      transformDetails:
        forward: {x: 0.77458763, y: 0.44478467, z: -0.44964653}
        right: {x: -0.61479455, y: 0.69640017, z: -0.37021068}
        up: {x: 0.14846954, y: 0.56319964, z: 0.8128736}
        worldToLocalMatrix:
          e00: -0.6147941
          e01: 0.69639987
          e02: -0.3702106
          e03: -0.7502386
          e10: 0.14846954
          e11: 0.5632
          e12: 0.8128731
          e13: -1.2932471
          e20: 0.7745873
          e21: 0.44478464
          e22: -0.4496459
          e23: -0.6995261
          e30: 0
          e31: 0
          e32: 0
          e33: 1
        localToWorldMatrix:
          e00: -0.6147941
          e01: 0.14846954
          e02: 0.7745873
          e03: 0.27260926
          e10: 0.69639987
          e11: 0.5632
          e12: 0.44478464
          e13: 1.5619608
          e20: -0.3702106
          e21: 0.8128731
          e22: -0.4496459
          e23: 0.4589605
          e30: 0
          e31: 0
          e32: 0
          e33: 1
    - transformName: b_r_thumb3
      position: {x: 0.25183347, y: 1.5854943, z: 0.44644994}
      localPosition: {x: 0.03379309, y: 1.3322676e-17, z: -1.6653344e-17}
      rotation: {x: 0.46216303, y: 0.75035644, z: 0.35524428, w: 0.31172544}
      localRotation: {x: 0.08511832, y: -0.074399695, z: 0.1835545, w: 0.9764873}
      transformDetails:
        forward: {x: 0.7961719, y: 0.24498373, z: -0.5532589}
        right: {x: -0.37846655, y: 0.91505134, z: -0.13944882}
        up: {x: 0.47209665, y: 0.32041368, z: 0.8212556}
        worldToLocalMatrix:
          e00: -0.37846568
          e01: 0.915051
          e02: -0.13944888
          e03: -1.2932408
          e10: 0.4720965
          e11: 0.32041442
          e12: 0.8212551
          e13: -0.99355423
          e20: 0.7961714
          e21: 0.24498355
          e22: -0.55325794
          e23: -0.34192064
          e30: 0
          e31: 0
          e32: 0
          e33: 1
        localToWorldMatrix:
          e00: -0.37846568
          e01: 0.4720965
          e02: 0.7961714
          e03: 0.25183347
          e10: 0.915051
          e11: 0.32041442
          e12: 0.24498355
          e13: 1.5854943
          e20: -0.13944888
          e21: 0.8212551
          e22: -0.55325794
          e23: 0.44644994
          e30: 0
          e31: 0
          e32: 0
          e33: 1
    - transformName: b_r_thumb_null
      position: {x: 0.24620819, y: 1.599095, z: 0.44437727}
      localPosition: {x: 0.014863368, y: 0, z: 8.881784e-18}
      rotation: {x: 0.46216303, y: 0.75035644, z: 0.35524428, w: 0.31172544}
      localRotation: {x: -1.3877788e-17, y: -1.8388069e-16, z: -2.4980018e-16, w: 1}
      transformDetails:
        forward: {x: 0.7961719, y: 0.24498373, z: -0.5532589}
        right: {x: -0.37846655, y: 0.91505134, z: -0.13944882}
        up: {x: 0.47209665, y: 0.32041368, z: 0.8212556}
        worldToLocalMatrix:
          e00: -0.37846568
          e01: 0.915051
          e02: -0.13944888
          e03: -1.3081042
          e10: 0.4720965
          e11: 0.32041442
          e12: 0.8212551
          e13: -0.99355423
          e20: 0.7961714
          e21: 0.24498355
          e22: -0.55325794
          e23: -0.34192064
          e30: 0
          e31: 0
          e32: 0
          e33: 1
        localToWorldMatrix:
          e00: -0.37846568
          e01: 0.4720965
          e02: 0.7961714
          e03: 0.24620819
          e10: 0.915051
          e11: 0.32041442
          e12: 0.24498355
          e13: 1.599095
          e20: -0.13944888
          e21: 0.8212551
          e22: -0.55325794
          e23: 0.44437727
          e30: 0
          e31: 0
          e32: 0
          e33: 1
  - Name: Index
    joints:
    - transformName: b_r_index1
      position: {x: 0.23501852, y: 1.5415001, z: 0.4377216}
      localPosition: {x: 0.09599624, y: -0.0073164543, z: 0.02355068}
      rotation: {x: -0.5692159, y: 0.43452296, z: 0.30009106, w: 0.63018155}
      localRotation: {x: 0.020038866, y: 0.04865735, z: -0.6395606, w: 0.76693755}
      transformDetails:
        forward: {x: 0.20602351, y: 0.97821164, z: -0.025633872}
        right: {x: 0.4422703, y: -0.116451055, z: -0.8892899}
        up: {x: -0.87289846, y: 0.17187724, z: -0.45662582}
        worldToLocalMatrix:
          e00: 0.44227055
          e01: -0.11645105
          e02: -0.8892896
          e03: 0.4648288
          e10: -0.8728982
          e11: 0.17187737
          e12: -0.45662573
          e13: 0.14007325
          e20: 0.20602328
          e21: 0.97821146
          e22: -0.025633551
          e23: -1.545112
          e30: 0
          e31: 0
          e32: 0
          e33: 1
        localToWorldMatrix:
          e00: 0.44227055
          e01: -0.8728982
          e02: 0.20602328
          e03: 0.23501852
          e10: -0.11645105
          e11: 0.17187737
          e12: 0.97821146
          e13: 1.5415001
          e20: -0.8892896
          e21: -0.45662573
          e22: -0.025633551
          e23: 0.4377216
          e30: 0
          e31: 0
          e32: 0
          e33: 1
    - transformName: b_r_index2
      position: {x: 0.25179267, y: 1.5370834, z: 0.40399325}
      localPosition: {x: 0.0379273, y: 3.330669e-18, z: 1.3322676e-17}
      rotation: {x: -0.70197, y: -0.19153132, z: -0.2891422, w: 0.6220538}
      localRotation: {x: -0.020123463, y: -0.015756855, z: -0.7829294, w: 0.62158537}
      transformDetails:
        forward: {x: 0.1676527, y: 0.98408574, z: -0.05889219}
        right: {x: 0.7594251, y: -0.09082553, z: 0.6442238}
        up: {x: 0.6286224, y: -0.1527301, z: -0.7625666}
        worldToLocalMatrix:
          e00: 0.7594253
          e01: -0.09082549
          e02: 0.64422387
          e03: -0.3118735
          e10: 0.62862253
          e11: -0.15272988
          e12: -0.7625665
          e13: 0.38454777
          e20: 0.16765264
          e21: 0.9840857
          e22: -0.058891915
          e23: -1.5310435
          e30: 0
          e31: 0
          e32: 0
          e33: 1
        localToWorldMatrix:
          e00: 0.7594253
          e01: 0.62862253
          e02: 0.16765264
          e03: 0.25179267
          e10: -0.09082549
          e11: -0.15272988
          e12: 0.9840857
          e13: 1.5370834
          e20: 0.64422387
          e21: -0.7625665
          e22: -0.058891915
          e23: 0.40399325
          e30: 0
          e31: 0
          e32: 0
          e33: 1
    - transformName: b_r_index3
      position: {x: 0.27024946, y: 1.534876, z: 0.41965026}
      localPosition: {x: 0.024303643, y: -5.2735593e-18, z: -8.881784e-18}
      rotation: {x: -0.467135, y: -0.5513171, z: -0.60765636, w: 0.32952714}
      localRotation: {x: -0.016241092, y: 0.011653919, z: -0.58025175, w: 0.8141919}
      transformDetails:
        forward: {x: 0.20436722, y: 0.97789, z: -0.044331342}
        right: {x: -0.3463936, y: 0.11460051, z: 0.931063}
        up: {x: 0.9155575, y: -0.17492273, z: 0.36215535}
        worldToLocalMatrix:
          e00: -0.34639382
          e01: 0.114600584
          e02: 0.9310632
          e03: -0.47300586
          e10: 0.91555774
          e11: -0.17492256
          e12: 0.36215562
          e13: -0.13092326
          e20: 0.20436707
          e21: 0.9778901
          e22: -0.044331267
          e23: -1.5375665
          e30: 0
          e31: 0
          e32: 0
          e33: 1
        localToWorldMatrix:
          e00: -0.34639382
          e01: 0.91555774
          e02: 0.20436707
          e03: 0.27024946
          e10: 0.114600584
          e11: -0.17492256
          e12: 0.9778901
          e13: 1.534876
          e20: 0.9310632
          e21: 0.36215562
          e22: -0.044331267
          e23: 0.41965026
          e30: 0
          e31: 0
          e32: 0
          e33: 1
    - transformName: b_r_index_null
      position: {x: 0.26623714, y: 1.5362034, z: 0.4304348}
      localPosition: {x: 0.011583036, y: 6.661338e-18, z: 0}
      rotation: {x: -0.467135, y: -0.5513171, z: -0.60765636, w: 0.32952714}
      localRotation: {x: 5.2041704e-18, y: 1.3877788e-17, z: -1.7997756e-17, w: 1}
      transformDetails:
        forward: {x: 0.20436722, y: 0.97789, z: -0.044331342}
        right: {x: -0.3463936, y: 0.11460051, z: 0.931063}
        up: {x: 0.9155575, y: -0.17492273, z: 0.36215535}
        worldToLocalMatrix:
          e00: -0.34639382
          e01: 0.114600584
          e02: 0.9310632
          e03: -0.4845889
          e10: 0.91555774
          e11: -0.17492256
          e12: 0.36215562
          e13: -0.13092326
          e20: 0.20436707
          e21: 0.9778901
          e22: -0.044331267
          e23: -1.5375665
          e30: 0
          e31: 0
          e32: 0
          e33: 1
        localToWorldMatrix:
          e00: -0.34639382
          e01: 0.91555774
          e02: 0.20436707
          e03: 0.26623714
          e10: 0.114600584
          e11: -0.17492256
          e12: 0.9778901
          e13: 1.5362034
          e20: 0.9310632
          e21: 0.36215562
          e22: -0.044331267
          e23: 0.4304348
          e30: 0
          e31: 0
          e32: 0
          e33: 1
  - Name: Middle
    joints:
    - transformName: b_r_middle1
      position: {x: 0.2282708, y: 1.5203224, z: 0.440003}
      localPosition: {x: 0.095646605, y: -0.0025431544, z: 0.0017259055}
      rotation: {x: -0.5998448, y: 0.37260622, z: 0.32338846, w: 0.62989753}
      localRotation: {x: -0.046078432, y: 0.047059428, z: -0.6622902, w: 0.74634707}
      transformDetails:
        forward: {x: 0.0814417, y: 0.9966746, z: 0.0027015805}
        right: {x: 0.513169, y: -0.039608657, z: -0.85737324}
        up: {x: -0.854415, y: 0.07121219, z: -0.51468843}
        worldToLocalMatrix:
          e00: 0.5131692
          e01: -0.03960871
          e02: -0.8573731
          e03: 0.32032323
          e10: -0.854415
          e11: 0.0712123
          e12: -0.51468855
          e13: 0.31323686
          e20: 0.08144163
          e21: 0.99667466
          e22: 0.002701752
          e23: -1.5350465
          e30: 0
          e31: 0
          e32: 0
          e33: 1
        localToWorldMatrix:
          e00: 0.5131692
          e01: -0.854415
          e02: 0.08144163
          e03: 0.2282708
          e10: -0.03960871
          e11: 0.0712123
          e12: 0.99667466
          e13: 1.5203224
          e20: -0.8573731
          e21: -0.51468855
          e22: 0.002701752
          e23: 0.440003
          e30: 0
          e31: 0
          e32: 0
          e33: 1
    - transformName: b_r_middle2
      position: {x: 0.2502996, y: 1.5186222, z: 0.40319854}
      localPosition: {x: 0.04292699, y: -4.440892e-18, z: 4.440892e-18}
      rotation: {x: -0.6810494, y: -0.21420668, z: -0.25380224, w: 0.65258855}
      localRotation: {x: -0.012243175, y: -0.005601357, z: -0.7531629, w: 0.65769637}
      transformDetails:
        forward: {x: 0.06612608, y: 0.9976224, z: -0.019425593}
        right: {x: 0.7793999, y: -0.0394862, z: 0.62528133}
        up: {x: 0.62302756, y: -0.05648774, z: -0.7801578}
        worldToLocalMatrix:
          e00: 0.77940017
          e01: -0.039486036
          e02: 0.62528163
          e03: -0.38723186
          e10: 0.6230277
          e11: -0.056487624
          e12: -0.78015774
          e13: 0.24439827
          e20: 0.06612597
          e21: 0.9976224
          e22: -0.019425496
          e23: -1.5237304
          e30: 0
          e31: 0
          e32: 0
          e33: 1
        localToWorldMatrix:
          e00: 0.77940017
          e01: 0.6230277
          e02: 0.06612597
          e03: 0.2502996
          e10: -0.039486036
          e11: -0.056487624
          e12: 0.9976224
          e13: 1.5186222
          e20: 0.62528163
          e21: -0.78015774
          e22: -0.019425496
          e23: 0.40319854
          e30: 0
          e31: 0
          e32: 0
          e33: 1
    - transformName: b_r_middle3
      position: {x: 0.27177176, y: 1.5175344, z: 0.42042482}
      localPosition: {x: 0.027549583, y: 1.110223e-18, z: 8.881784e-18}
      rotation: {x: -0.49382535, y: -0.56064653, z: -0.5862504, w: 0.3132458}
      localRotation: {x: -0.092214264, y: -0.024840647, z: -0.579125, w: 0.8096257}
      transformDetails:
        forward: {x: 0.22777033, y: 0.96673596, z: -0.11637601}
        right: {x: -0.31602818, y: 0.18644196, z: 0.930251}
        up: {x: 0.9210039, y: -0.17510608, z: 0.3479811}
        worldToLocalMatrix:
          e00: -0.31602788
          e01: 0.18644206
          e02: 0.9302507
          e03: -0.58814526
          e10: 0.92100376
          e11: -0.17510532
          e12: 0.3479813
          e13: -0.13087447
          e20: 0.2277701
          e21: 0.9667356
          e22: -0.116375566
          e23: -1.4800287
          e30: 0
          e31: 0
          e32: 0
          e33: 1
        localToWorldMatrix:
          e00: -0.31602788
          e01: 0.92100376
          e02: 0.2277701
          e03: 0.27177176
          e10: 0.18644206
          e11: -0.17510532
          e12: 0.9667356
          e13: 1.5175344
          e20: 0.9302507
          e21: 0.3479813
          e22: -0.116375566
          e23: 0.42042482
          e30: 0
          e31: 0
          e32: 0
          e33: 1
    - transformName: b_r_middle_null
      position: {x: 0.2679151, y: 1.5198096, z: 0.4317771}
      localPosition: {x: 0.0122034745, y: 6.661338e-18, z: 0}
      rotation: {x: -0.49382535, y: -0.56064653, z: -0.5862504, w: 0.3132458}
      localRotation: {x: 2.0816682e-17, y: -1.3877788e-17, z: -1.7347235e-17, w: 1}
      transformDetails:
        forward: {x: 0.22777033, y: 0.96673596, z: -0.11637601}
        right: {x: -0.31602818, y: 0.18644196, z: 0.930251}
        up: {x: 0.9210039, y: -0.17510608, z: 0.3479811}
        worldToLocalMatrix:
          e00: -0.31602788
          e01: 0.18644206
          e02: 0.9302507
          e03: -0.6003487
          e10: 0.92100376
          e11: -0.17510532
          e12: 0.3479813
          e13: -0.13087447
          e20: 0.2277701
          e21: 0.9667356
          e22: -0.116375566
          e23: -1.4800287
          e30: 0
          e31: 0
          e32: 0
          e33: 1
        localToWorldMatrix:
          e00: -0.31602788
          e01: 0.92100376
          e02: 0.2277701
          e03: 0.26791513
          e10: 0.18644206
          e11: -0.17510532
          e12: 0.9667356
          e13: 1.5198096
          e20: 0.9302507
          e21: 0.3479813
          e22: -0.116375566
          e23: 0.4317771
          e30: 0
          e31: 0
          e32: 0
          e33: 1
  - Name: Ring
    joints:
    - transformName: b_r_ring1
      position: {x: 0.23244539, y: 1.4999528, z: 0.43957958}
      localPosition: {x: 0.08869379, y: -0.006529307, z: -0.017465241}
      rotation: {x: -0.6243149, y: 0.32544577, z: 0.3543824, w: 0.61540973}
      localRotation: {x: -0.107770436, y: 0.053958464, z: -0.6668108, w: 0.7354165}
      transformDetails:
        forward: {x: -0.041927427, y: 0.9990834, z: 0.008631885}
        right: {x: 0.53699636, y: 0.029819459, z: -0.8430574}
        up: {x: -0.84254205, y: -0.030711979, z: -0.5377544}
        worldToLocalMatrix:
          e00: 0.53699636
          e01: 0.029819462
          e02: -0.8430574
          e03: 0.2010407
          e10: -0.8425421
          e11: -0.030711964
          e12: -0.5377545
          e13: 0.47829744
          e20: -0.041927487
          e21: 0.9990836
          e22: 0.008632019
          e23: -1.4926268
          e30: 0
          e31: 0
          e32: 0
          e33: 1
        localToWorldMatrix:
          e00: 0.53699636
          e01: -0.8425421
          e02: -0.041927487
          e03: 0.23244539
          e10: 0.029819462
          e11: -0.030711964
          e12: 0.9990836
          e13: 1.4999528
          e20: -0.8430574
          e21: -0.5377545
          e22: 0.008632019
          e23: 0.43957958
          e30: 0
          e31: 0
          e32: 0
          e33: 1
    - transformName: b_r_ring2
      position: {x: 0.25338617, y: 1.5011156, z: 0.40670362}
      localPosition: {x: 0.0389961, y: -8.881784e-18, z: 8.881784e-18}
      rotation: {x: -0.67345446, y: -0.28132436, z: -0.1989235, w: 0.6540226}
      localRotation: {x: -0.041092012, y: -0.023127332, z: -0.7490013, w: 0.66088855}
      transformDetails:
        forward: {x: -0.1000531, y: 0.9928329, z: -0.06536862}
        right: {x: 0.7625721, y: 0.11871737, z: 0.6359168}
        up: {x: 0.6391192, y: 0.01377704, z: -0.7689848}
        worldToLocalMatrix:
          e00: 0.7625723
          e01: 0.11871754
          e02: 0.6359168
          e03: -0.6300637
          e10: 0.6391191
          e11: 0.01377744
          e12: -0.76898456
          e13: 0.13012335
          e20: -0.100053236
          e21: 0.9928326
          e22: -0.065368265
          e23: -1.4384187
          e30: 0
          e31: 0
          e32: 0
          e33: 1
        localToWorldMatrix:
          e00: 0.7625723
          e01: 0.6391191
          e02: -0.100053236
          e03: 0.25338617
          e10: 0.11871754
          e11: 0.01377744
          e12: 0.9928326
          e13: 1.5011156
          e20: 0.6359168
          e21: -0.76898456
          e22: -0.065368265
          e23: 0.40670362
          e30: 0
          e31: 0
          e32: 0
          e33: 1
    - transformName: b_r_ring3
      position: {x: 0.2736503, y: 1.5042703, z: 0.4236021}
      localPosition: {x: 0.026573397, y: 4.440892e-18, z: -4.440892e-18}
      rotation: {x: -0.36787874, y: -0.6546689, z: -0.5608406, w: 0.34861416}
      localRotation: {x: -0.033374336, y: -0.02557367, z: -0.6348511, w: 0.7714897}
      transformDetails:
        forward: {x: -0.043811053, y: 0.9908253, z: -0.12785232}
        right: {x: -0.48626715, y: 0.090643615, z: 0.8690964}
        up: {x: 0.87271154, y: 0.10024613, z: 0.47783434}
        worldToLocalMatrix:
          e00: -0.486267
          e01: 0.090643615
          e02: 0.86909646
          e03: -0.37143648
          e10: 0.8727117
          e11: 0.100246355
          e12: 0.47783452
          e13: -0.59202707
          e20: -0.043811098
          e21: 0.9908253
          e22: -0.1278521
          e23: -1.4243218
          e30: 0
          e31: 0
          e32: 0
          e33: 1
        localToWorldMatrix:
          e00: -0.486267
          e01: 0.8727117
          e02: -0.043811098
          e03: 0.2736503
          e10: 0.090643615
          e11: 0.100246355
          e12: 0.9908253
          e13: 1.5042703
          e20: 0.86909646
          e21: 0.47783452
          e22: -0.1278521
          e23: 0.4236021
          e30: 0
          e31: 0
          e32: 0
          e33: 1
    - transformName: b_r_ring_null
      position: {x: 0.26784456, y: 1.5053525, z: 0.4339786}
      localPosition: {x: 0.01193941, y: -1.110223e-18, z: -6.661338e-18}
      rotation: {x: -0.36787874, y: -0.6546689, z: -0.5608406, w: 0.34861416}
      localRotation: {x: 4.1633363e-17, y: -5.551115e-17, z: 3.469447e-17, w: 1}
      transformDetails:
        forward: {x: -0.043811053, y: 0.9908253, z: -0.12785232}
        right: {x: -0.48626715, y: 0.090643615, z: 0.8690964}
        up: {x: 0.87271154, y: 0.10024613, z: 0.47783434}
        worldToLocalMatrix:
          e00: -0.486267
          e01: 0.090643615
          e02: 0.86909646
          e03: -0.38337588
          e10: 0.8727117
          e11: 0.100246355
          e12: 0.47783452
          e13: -0.59202707
          e20: -0.043811098
          e21: 0.9908253
          e22: -0.1278521
          e23: -1.4243218
          e30: 0
          e31: 0
          e32: 0
          e33: 1
        localToWorldMatrix:
          e00: -0.486267
          e01: 0.8727117
          e02: -0.043811098
          e03: 0.26784456
          e10: 0.090643615
          e11: 0.100246355
          e12: 0.9908253
          e13: 1.5053525
          e20: 0.86909646
          e21: 0.47783452
          e22: -0.1278521
          e23: 0.4339786
          e30: 0
          e31: 0
          e32: 0
          e33: 1
  - Name: Pinky
    joints:
    - transformName: b_r_pinky0
      position: {x: 0.27520242, y: 1.4836595, z: 0.47005433}
      localPosition: {x: 0.034073558, y: -0.009419835, z: -0.022998573}
      rotation: {x: -0.32008123, y: 0.540272, z: 0.7574656, w: 0.17860654}
      localRotation: {x: -0.20703599, y: 0.14034285, z: -0.0183118, w: 0.96804166}
      transformDetails:
        forward: {x: -0.2919088, y: 0.9328121, z: 0.21130833}
        right: {x: -0.73129594, y: -0.075285226, z: -0.6778933}
        up: {x: -0.6164385, y: -0.35241225, z: 0.7041377}
        worldToLocalMatrix:
          e00: -0.7312954
          e01: -0.07528533
          e02: -0.6778932
          e03: 0.6315987
          e10: -0.61643845
          e11: -0.35241196
          e12: 0.70413744
          e13: 0.36152184
          e20: -0.29190886
          e21: 0.932812
          e22: 0.21130848
          e23: -1.4029678
          e30: 0
          e31: 0
          e32: 0
          e33: 1
        localToWorldMatrix:
          e00: -0.7312954
          e01: -0.61643845
          e02: -0.29190886
          e03: 0.27520242
          e10: -0.07528533
          e11: -0.35241196
          e12: 0.932812
          e13: 1.4836595
          e20: -0.6778932
          e21: 0.70413744
          e22: 0.21130848
          e23: 0.47005433
          e30: 0
          e31: 0
          e32: 0
          e33: 1
    - transformName: b_r_pinky1
      position: {x: 0.24181837, y: 1.4802251, z: 0.4391079}
      localPosition: {x: 0.04565054, y: -0.0000009982332, z: 0.0000021940255}
      rotation: {x: -0.5987653, y: 0.28119776, z: 0.4436397, w: 0.6046419}
      localRotation: {x: 0.05990262, y: 0.03509597, z: -0.61224836, w: 0.78761154}
      transformDetails:
        forward: {x: -0.19122422, y: 0.9735782, z: 0.12481582}
        right: {x: 0.4482233, y: 0.19974339, z: -0.87132}
        up: {x: -0.87322927, y: -0.110672176, z: -0.47457623}
        worldToLocalMatrix:
          e00: 0.4482234
          e01: 0.1997435
          e02: -0.87131995
          e03: -0.021450525
          e10: -0.87322927
          e11: -0.11067212
          e12: -0.47457632
          e13: 0.5833728
          e20: -0.1912243
          e21: 0.9735782
          e22: 0.124816075
          e23: -1.4496812
          e30: 0
          e31: 0
          e32: 0
          e33: 1
        localToWorldMatrix:
          e00: 0.4482234
          e01: -0.87322927
          e02: -0.1912243
          e03: 0.24181837
          e10: 0.1997435
          e11: -0.11067212
          e12: 0.9735782
          e13: 1.4802251
          e20: -0.87131995
          e21: -0.47457632
          e22: 0.124816075
          e23: 0.4391079
          e30: 0
          e31: 0
          e32: 0
          e33: 1
    - transformName: b_r_pinky2
      position: {x: 0.255588, y: 1.4863613, z: 0.41234058}
      localPosition: {x: 0.030720409, y: 1.110223e-18, z: -3.7747583e-17}
      rotation: {x: -0.6718491, y: -0.27015975, z: -0.09864768, w: 0.6825696}
      localRotation: {x: -0.08964321, y: 0.0018387582, z: -0.71314615, w: 0.6952577}
      transformDetails:
        forward: {x: -0.23625298, y: 0.9704688, z: -0.048734933}
        right: {x: 0.8345647, y: 0.22834533, z: 0.5013584}
        up: {x: 0.49768096, y: 0.07777492, z: -0.86386627}
        worldToLocalMatrix:
          e00: 0.8345648
          e01: 0.22834544
          e02: 0.50135845
          e03: -0.759439
          e10: 0.49768096
          e11: 0.07777511
          e12: -0.8638662
          e13: 0.1134039
          e20: -0.23625308
          e21: 0.9704687
          e22: -0.048734784
          e23: -1.3619883
          e30: 0
          e31: 0
          e32: 0
          e33: 1
        localToWorldMatrix:
          e00: 0.8345648
          e01: 0.49768096
          e02: -0.23625308
          e03: 0.25558797
          e10: 0.22834544
          e11: 0.07777511
          e12: 0.9704687
          e13: 1.4863613
          e20: 0.50135845
          e21: -0.8638662
          e22: -0.048734784
          e23: 0.41234058
          e30: 0
          e31: 0
          e32: 0
          e33: 1
    - transformName: b_r_pinky3
      position: {x: 0.27253914, y: 1.4909993, z: 0.42252386}
      localPosition: {x: 0.020311384, y: -6.661338e-18, z: 1.7763568e-17}
      rotation: {x: -0.35076016, y: -0.6598878, z: -0.48200285, w: 0.45737153}
      localRotation: {x: 0.0027450493, y: -0.037624523, z: -0.6324656, w: 0.77366936}
      transformDetails:
        forward: {x: -0.265493, y: 0.956991, z: -0.11696917}
        right: {x: -0.33555728, y: 0.02201593, z: 0.94176257}
        up: {x: 0.90383345, y: 0.28928113, z: 0.31528014}
        worldToLocalMatrix:
          e00: -0.33555746
          e01: 0.022015896
          e02: 0.9417626
          e03: -0.33929032
          e10: 0.9038335
          e11: 0.28928143
          e12: 0.31528053
          e13: -0.810862
          e20: -0.26549312
          e21: 0.95699096
          e22: -0.11696917
          e23: -1.3050933
          e30: 0
          e31: 0
          e32: 0
          e33: 1
        localToWorldMatrix:
          e00: -0.33555746
          e01: 0.9038335
          e02: -0.26549312
          e03: 0.27253914
          e10: 0.022015896
          e11: 0.28928143
          e12: 0.95699096
          e13: 1.4909993
          e20: 0.9417626
          e21: 0.31528053
          e22: -0.11696917
          e23: 0.42252386
          e30: 0
          e31: 0
          e32: 0
          e33: 1
    - transformName: b_r_pinky_null
      position: {x: 0.26854306, y: 1.4912615, z: 0.43373913}
      localPosition: {x: 0.011908775, y: -1.6653345e-18, z: -4.440892e-18}
      rotation: {x: -0.35076016, y: -0.6598878, z: -0.48200285, w: 0.45737153}
      localRotation: {x: -2.7755576e-17, y: 1.3877788e-16, z: 6.938894e-18, w: 1}
      transformDetails:
        forward: {x: -0.265493, y: 0.956991, z: -0.11696917}
        right: {x: -0.33555728, y: 0.02201593, z: 0.94176257}
        up: {x: 0.90383345, y: 0.28928113, z: 0.31528014}
        worldToLocalMatrix:
          e00: -0.33555746
          e01: 0.022015896
          e02: 0.9417626
          e03: -0.3511991
          e10: 0.9038335
          e11: 0.28928143
          e12: 0.31528053
          e13: -0.810862
          e20: -0.26549312
          e21: 0.95699096
          e22: -0.11696917
          e23: -1.3050933
          e30: 0
          e31: 0
          e32: 0
          e33: 1
        localToWorldMatrix:
          e00: -0.33555746
          e01: 0.9038335
          e02: -0.26549312
          e03: 0.26854306
          e10: 0.022015896
          e11: 0.28928143
          e12: 0.95699096
          e13: 1.4912615
          e20: 0.9417626
          e21: 0.31528053
          e22: -0.11696917
          e23: 0.43373913
          e30: 0
          e31: 0
          e32: 0
          e33: 1
  - Name: Other
    joints: []
  bonesPositionsRelativeToWristCache:
  - {x: 0.020069303, y: -0.011554077, z: 0.010496519}
  - {x: 0.033251632, y: -0.013571572, z: 0.031467978}
  - {x: 0.05817705, y: -0.0123618655, z: 0.052309133}
  - {x: 0.08638598, y: -0.008295452, z: 0.07046656}
  - {x: 0.094643585, y: -0.005763605, z: 0.08256288}
  - {x: 0.095996246, y: -0.007316445, z: 0.023550687}
  - {x: 0.10271655, y: -0.044449415, z: 0.019747822}
  - {x: 0.07856543, y: -0.043458138, z: 0.022279344}
  - {x: 0.075360194, y: -0.03241415, z: 0.02366631}
  - {x: 0.0956466, y: -0.0025431474, z: 0.0017258644}
  - {x: 0.10072549, y: -0.04516681, z: 0.0013304703}
  - {x: 0.07351999, y: -0.044714764, z: 0.0056476467}
  - {x: 0.07003597, y: -0.0332657, z: 0.0080361795}
  - {x: 0.0886938, y: -0.006529291, z: -0.01746524}
  - {x: 0.092784606, y: -0.045228947, z: -0.01495548}
  - {x: 0.06754055, y: -0.044068832, z: -0.0067373617}
  - {x: 0.06591529, y: -0.032266185, z: -0.005959551}
  - {x: 0.03407354, y: -0.009419818, z: -0.022998635}
  - {x: 0.07789583, y: -0.013691167, z: -0.035054132}
  - {x: 0.08476924, y: -0.042917084, z: -0.028546723}
  - {x: 0.06644646, y: -0.044962116, z: -0.020023486}
  - {x: 0.06275792, y: -0.033645343, z: -0.019642787}
