%YAML 1.1
%TAG !u! tag:unity3d.com,2011:
--- !u!114 &11400000
MonoBehaviour:
  m_ObjectHideFlags: 0
  m_CorrespondingSourceObject: {fileID: 0}
  m_PrefabInstance: {fileID: 0}
  m_PrefabAsset: {fileID: 0}
  m_GameObject: {fileID: 0}
  m_Enabled: 0
  m_EditorHideFlags: 0
  m_Script: {fileID: 11500000, guid: 25abae4bfa86aa74388cb37611b34981, type: 3}
  m_Name: ThumbUp State
  m_EditorClassIdentifier: 
  associatedHandStruct: {fileID: 11400000, guid: 60bef4174f2c7364f8a6159f1f85b514,
    type: 2}
  stateMachine: {fileID: 0}
  possibleTransitions:
  - {fileID: 11400000, guid: 6fe3fa2d9f59dc141bc4c8e779aee795, type: 2}
  - {fileID: 11400000, guid: ed14a3405be115041b1b76cfc57d4b37, type: 2}
  - {fileID: 11400000, guid: 9862ce0a6bc841f40b3e202159a58bbc, type: 2}
  - {fileID: 11400000, guid: fe6464ef878cf40439e26026c07bb1f7, type: 2}
  - {fileID: 11400000, guid: 1a36c5e13f17d0d4b9cd38ec3e1fec88, type: 2}
  - {fileID: 11400000}
  - {fileID: 11400000, guid: 0c75d3a473509cc42b5862f2200b4d0e, type: 2}
